{
  "componentVariants" : [ {
    "id" : "230d801f-c8f0-4d1f-8419-db780de30a67",
    "propertyOverrides" : {
      "activeViewId" : "feeb832c-6895-4648-9a29-8b132810655e"
    },
    "targetId" : "50aff4b7-9e09-4d44-96ce-f63aa22a7bbc",
    "type" : "componentVariant"
  } ],
  "developerName" : "Account_Detail_Account_Detail_Page",
  "id" : "0f453b5e-6063-46dc-baa7-ed78710cf525",
  "type" : "experienceVariation"
}