{
  "activeViewId" : "4cbc4b8f-6b4e-4ae7-bf42-28ed96f1f3cc",
  "appPageId" : "3ecf8350-c782-4489-b1fb-c85cdae7211f",
  "id" : "099a5838-637d-4b0a-a218-a24f4808c539",
  "label" : "Forgot Password",
  "routeType" : "forgot-password",
  "type" : "route",
  "urlPrefix" : "ForgotPassword"
}