{
  "activeViewId" : "fa164aba-861c-41a6-b635-4aace1e6ac07",
  "appPageId" : "494e0424-18a7-4767-a4eb-e336e4bb9232",
  "id" : "15e7c9bf-0e56-481d-9d92-fc28f8d35765",
  "label" : "Property Event Related List",
  "objectApiName" : "PropertyEvent__c",
  "routeType" : "relatedlist-a1E",
  "type" : "route",
  "urlPrefix" : "propertyevent"
}