{
  "activeViewId" : "10fc098e-43d2-45c6-9f6a-149156af9cf7",
  "appPageId" : "494e0424-18a7-4767-a4eb-e336e4bb9232",
  "id" : "97eec33b-8069-41a4-a4b4-d7fc9a7cad21",
  "label" : "Statement Related List",
  "objectApiName" : "Statement__c",
  "routeType" : "relatedlist-a1R",
  "type" : "route",
  "urlPrefix" : "statement"
}