{
  "componentVariants" : [ {
    "id" : "f569abaf-6b8d-41fb-ad9a-59f7bb581804",
    "propertyOverrides" : {
      "activeViewId" : "0eaf4c68-2301-4413-9b95-2bedf3fb63ca"
    },
    "targetId" : "790aa1e2-19cd-4223-bfc1-8a253526ab57",
    "type" : "componentVariant"
  } ],
  "developerName" : "Property_Detail_Property_Detail_Page",
  "id" : "200edf6f-fab1-4d82-95b1-12cdc3b7c2f4",
  "type" : "experienceVariation"
}