{
  "cmsSettings" : { },
  "currentThemeId" : "cf8b2c57-5ef6-4503-8f7a-78b3844900a6",
  "headMarkup" : null,
  "id" : "494e0424-18a7-4767-a4eb-e336e4bb9232",
  "isRelaxedCSPLevel" : false,
  "label" : "main",
  "templateName" : "Starter Template",
  "type" : "appPage"
}