<?xml version="1.0" encoding="UTF-8"?>
<CustomTab xmlns="http://soap.sforce.com/2006/04/metadata">
    <description>Created by Lightning App Builder</description>
    <flexiPage>Display_JWT_Token</flexiPage>
    <label>Display JWT Token</label>
    <motif>Custom94: Stethoscope</motif>
</CustomTab>
