{
  "appPageId" : "494e0424-18a7-4767-a4eb-e336e4bb9232",
  "componentName" : "siteforce:sldsOneColLayout",
  "id" : "0ba9051b-7d9f-4bcb-a99e-fb4425362049",
  "label" : "Account Related List",
  "regions" : [ {
    "id" : "831d3abb-76da-4cb2-9b3a-92cfe231f123",
    "regionName" : "header",
    "type" : "region"
  }, {
    "components" : [ {
      "componentAttributes" : {
        "customTitle" : "",
        "parentRecordId" : "{!recordId}",
        "relatedListName" : "{!relationshipApiName}",
        "showBreadCrumbs" : true,
        "showCustomTitle" : false,
        "showManualRefreshButton" : true,
        "showRowNumbers" : true
      },
      "componentName" : "forceCommunity:relatedList",
      "id" : "3569ae2a-4c27-468f-9689-6c2e6b8c2a14",
      "renderPriority" : "NEUTRAL",
      "renditionMap" : { },
      "type" : "component"
    } ],
    "id" : "2cc3b41c-d266-48c2-ae5a-b8bf993e83aa",
    "regionName" : "content",
    "type" : "region"
  }, {
    "id" : "b90c44d4-e6fe-4777-8d89-ad1da198a75b",
    "regionName" : "footer",
    "type" : "region"
  } ],
  "themeLayoutType" : "Inner",
  "type" : "view",
  "viewType" : "relatedlist-001"
}