{
  "appPageId" : "494e0424-18a7-4767-a4eb-e336e4bb9232",
  "componentName" : "siteforce:dynamicLayout",
  "id" : "228898cf-138a-41cd-8747-601e2a348b32",
  "label" : "Assessments",
  "regions" : [ {
    "components" : [ {
      "componentAttributes" : {
        "background" : "background: rgba(0,0,0,0)",
        "backgroundOverlay" : "rgba(0,0,0,0.5)",
        "contentAreaWidth" : 100,
        "sectionConfig" : {
          "UUID" : "b252ae8f-b76a-43a8-9f51-7c732a4b45d0",
          "columns" : [ {
            "UUID" : "f20cda2a-d826-436e-9354-a22ec20627d2",
            "columnKey" : "1",
            "columnName" : "Column 1",
            "columnWidth" : "12",
            "seedComponents" : [ ]
          } ]
        },
        "sectionHeight" : 300
      },
      "componentName" : "forceCommunity:section",
      "id" : "b252ae8f-b76a-43a8-9f51-7c732a4b45d0",
      "regions" : [ {
        "components" : [ {
          "componentAttributes" : {
            "richTextValue" : "<p><br></p><p style=\"text-align: center;\"><span style=\"font-size: 16px;\">&nbsp;If your Assessment is in 'Noticing' Sub-Status &amp; you have questions about it, please contact us before enrollment. You also have the ability to waive your notice period if you'd like to receive your Assessment sooner by clicking into the Assessment Case Number below and navigating to the 'Waive Notice Period' tab.</span></p>"
          },
          "componentName" : "forceCommunity:richTextInline",
          "id" : "611ea65f-f207-4f02-a14b-a871f6621052",
          "renderPriority" : "NEUTRAL",
          "renditionMap" : { },
          "type" : "component"
        }, {
          "componentAttributes" : {
            "enableInlineEdit" : false,
            "listName" : "Taxpayer_My_Assessment_Cases",
            "objectApiName" : "Case",
            "rows" : 50,
            "showActionBar" : false,
            "showRowLevelActions" : false,
            "showSearchBar" : false
          },
          "componentName" : "c:listView",
          "id" : "00348e99-45f2-4cda-87a7-96176f7b4534",
          "renderPriority" : "NEUTRAL",
          "renditionMap" : { },
          "type" : "component"
        } ],
        "id" : "f20cda2a-d826-436e-9354-a22ec20627d2",
        "regionLabel" : "Column 1",
        "regionName" : "1",
        "renditionMap" : { },
        "type" : "region"
      } ],
      "renderPriority" : "NEUTRAL",
      "renditionMap" : { },
      "type" : "component"
    } ],
    "id" : "2787ac64-9673-40eb-97ac-fc15c9d0c344",
    "regionName" : "content",
    "type" : "region"
  }, {
    "components" : [ {
      "componentAttributes" : {
        "description" : "",
        "metaTags" : "",
        "title" : "Assessments"
      },
      "componentName" : "forceCommunity:seoAssistant",
      "id" : "037c9019-447c-4cca-9c8c-721502c1d613",
      "renditionMap" : { },
      "type" : "component"
    } ],
    "id" : "799a3f1c-ba37-4cd4-88c2-489dfedbf69e",
    "regionName" : "sfdcHiddenRegion",
    "type" : "region"
  } ],
  "themeLayoutType" : "Inner",
  "type" : "view",
  "viewType" : "custom-assessments"
}