{
  "appPageId" : "494e0424-18a7-4767-a4eb-e336e4bb9232",
  "componentName" : "siteforce:sldsOneColLayout",
  "id" : "a5477419-f12c-4ba3-b863-7f9c8a068859",
  "label" : "BPP Statements",
  "regions" : [ {
    "components" : [ {
      "componentAttributes" : {
        "bannerText" : "A place where you can easily find solutions and ask questions",
        "bannerTextWithKnowledge" : "Explore other <a href=\"javascript:void(0)\" class=\"headlineArticles\">articles</a> and <a href=\"javascript:void(0)\" class=\"headlineDiscussions\">discussions</a> on this topic.",
        "bannerTextWithoutKnowledge" : "Explore other <a href=\"javascript:void(0)\" class=\"headlineDiscussions\">discussions</a> on this topic.",
        "pageType" : "",
        "showSubTopics" : true,
        "title" : "Welcome!",
        "uniqueNameOrId" : ""
      },
      "componentName" : "forceCommunity:headline",
      "id" : "a3d1aece-e049-44fd-8ea2-99b7283050c4",
      "renderPriority" : "NEUTRAL",
      "renditionMap" : { },
      "type" : "component"
    } ],
    "id" : "8d258cbe-5173-4c65-b40a-97f5abfba366",
    "regionName" : "header",
    "type" : "region"
  }, {
    "components" : [ {
      "componentAttributes" : {
        "tileMenuEditor" : "File_BPP_Statements"
      },
      "componentName" : "forceCommunity:tileMenu",
      "id" : "6416c360-8d4c-4ae5-869d-65bd2d3b0a82",
      "renderPriority" : "NEUTRAL",
      "renditionMap" : { },
      "type" : "component"
    } ],
    "id" : "3da62364-6b02-4b31-9277-3976529c0141",
    "regionName" : "content",
    "type" : "region"
  }, {
    "id" : "5436bfca-4681-43b1-9288-c6ea28740a94",
    "regionName" : "footer",
    "type" : "region"
  }, {
    "components" : [ {
      "componentAttributes" : {
        "description" : "",
        "metaTags" : "",
        "title" : "BPP Statements"
      },
      "componentName" : "forceCommunity:seoAssistant",
      "id" : "7fcc9616-9c64-4d2b-86ca-5d03c9181fd4",
      "renditionMap" : { },
      "type" : "component"
    } ],
    "id" : "f021c443-ff04-4e46-ab64-8cb2577023a9",
    "regionName" : "sfdcHiddenRegion",
    "type" : "region"
  }, {
    "id" : "d017ef96-a4c7-4ba4-ad29-9a41e5d638b1",
    "regionName" : "sidebar",
    "type" : "region"
  }, {
    "id" : "eea2b9c1-f7e1-467f-876f-d7a2c453437c",
    "regionName" : "sidebarAlt",
    "type" : "region"
  } ],
  "themeLayoutType" : "Inner",
  "type" : "view",
  "viewType" : "custom-bpp-statements"
}