{
  "appPageId" : "494e0424-18a7-4767-a4eb-e336e4bb9232",
  "componentName" : "siteforce:sldsThreeCol363Layout",
  "id" : "864128bf-edce-461f-a215-db9887ab501a",
  "label" : "Contact Support",
  "regions" : [ {
    "components" : [ {
      "componentAttributes" : {
        "richTextValue" : "<p style=\"text-align: center;\"><br></p><p style=\"text-align: center;\"><span style=\"font-size: 16px;\">This page is used for general inquires. For example, if you need a replacement notice, to add a new business location, to add a new vessel, or to make a general inquiry.</span></p><p style=\"text-align: center;\"><br></p><p style=\"text-align: center;\"><span style=\"font-size: 16px;\">If you need to update a specific property (for example, it has moved, closed, or sold) or report it as a duplicate, please go to My Details, Properties, select the specific property, and navigate to the ‘Request Property Updates’ tab. This will help us expedite your request.</span></p>"
      },
      "componentName" : "forceCommunity:richTextInline",
      "id" : "e4f08182-eef2-4d02-b662-bacb39798c96",
      "renderPriority" : "NEUTRAL",
      "renditionMap" : { },
      "type" : "component"
    } ],
    "id" : "155dcd77-b53f-4e67-bde8-f14bce6f1880",
    "regionName" : "header",
    "type" : "region"
  }, {
    "components" : [ {
      "componentAttributes" : { },
      "componentName" : "c:generalEnquiryCaseCreation",
      "id" : "2196fe03-77d6-462f-a004-a06285eca1b6",
      "renderPriority" : "NEUTRAL",
      "renditionMap" : { },
      "type" : "component"
    } ],
    "id" : "f37402f9-213a-4ac1-b17f-39493bd98a51",
    "regionName" : "content",
    "type" : "region"
  }, {
    "id" : "32b68db2-7156-43f1-80b4-cc1c088a49c4",
    "regionName" : "sidebar",
    "type" : "region"
  }, {
    "id" : "b5722353-cbd9-48cb-9f03-6b126a64a5a1",
    "regionName" : "footer",
    "type" : "region"
  }, {
    "components" : [ {
      "componentAttributes" : {
        "description" : "",
        "metaTags" : "",
        "title" : "Contact Support"
      },
      "componentName" : "forceCommunity:seoAssistant",
      "id" : "2181ad6c-55ba-4ddd-a099-8884d4f62949",
      "renditionMap" : { },
      "type" : "component"
    } ],
    "id" : "0139fada-6d6e-40d1-ae00-2a4ce658868e",
    "regionName" : "sfdcHiddenRegion",
    "type" : "region"
  }, {
    "id" : "925122ed-0ada-494e-b47e-7af4bc13ecd3",
    "regionName" : "sidebarAlt",
    "type" : "region"
  } ],
  "themeLayoutType" : "Inner",
  "type" : "view",
  "viewType" : "contactsupport"
}