{
  "appPageId" : "494e0424-18a7-4767-a4eb-e336e4bb9232",
  "componentName" : "siteforce:sldsOneColLayout",
  "id" : "1ff3c5fb-a652-4414-9d90-0193d585aef5",
  "label" : "Create Record",
  "regions" : [ {
    "id" : "a0083eb0-314f-47c5-a784-7224abade22a",
    "regionName" : "header",
    "type" : "region"
  }, {
    "components" : [ {
      "componentAttributes" : {
        "actionApiName" : "{!actionApiName}"
      },
      "componentName" : "forceCommunity:createRecordForm",
      "id" : "f9c5a1a8-4dcd-4499-8cf5-9513ff3fb1e9",
      "renderPriority" : "NEUTRAL",
      "renditionMap" : { },
      "type" : "component"
    } ],
    "id" : "a3ab2c4e-bb75-45b8-95f3-d9ca7d9f09b6",
    "regionName" : "content",
    "type" : "region"
  }, {
    "id" : "9d96a1ae-93c2-41c4-ac94-f342b724777f",
    "regionName" : "footer",
    "type" : "region"
  } ],
  "themeLayoutType" : "Inner",
  "type" : "view",
  "viewType" : "createrecord"
}