{
  "appPageId" : "494e0424-18a7-4767-a4eb-e336e4bb9232",
  "componentName" : "siteforce:sldsOneColLayout",
  "id" : "819c09c0-d9cf-4522-926e-12bc678d818b",
  "label" : "Home with tabs",
  "regions" : [ {
    "components" : [ {
      "componentAttributes" : {
        "richTextValue" : "<p style=\"text-align: center;\"><br></p><h1 style=\"text-align: center;\"><b style=\"font-size: 26px;\">Welcome to the City and County of San Francisco Assessor-Recorder's new web portal</b></h1><p style=\"text-align: center;\"><span style=\"font-size: 16px;\"> </span>&nbsp;&nbsp;<span style=\"font-size: 16px;\">On our new web portal, you can electronically file your Statements and Exemptions Forms, review and manage </span></p><p style=\"text-align: center;\"><span style=\"font-size: 16px;\">your Business Accounts and Property Locations, as well as create customer support cases.</span></p>"
      },
      "componentName" : "forceCommunity:richTextInline",
      "id" : "6299d0c5-ecf5-4f0f-837b-2acc3f88e8a6",
      "renderPriority" : "NEUTRAL",
      "renditionMap" : { },
      "type" : "component"
    }, {
      "componentAttributes" : {
        "richTextValue" : "<div style=\"background-color:white;padding:20px;border-style: solid;border-color: #eee;border-radius: 5px;\">\n<h2 style=\"color:#217EA6;\">Getting Started in Community</h2>\n<p>To get started, click the button below to link your Business Accounts and Properties. \nYou will be asked to input an Entity ID and Access PIN, which can be found on the Notice to File that was mailed this year. \n    Once a Business Account is linked, you will be able to see all the associated Properties below. You may also link multiple Accounts and Properties.</p>\n<br/>\n<h2 style=\"color:#217EA6;\">Request a Replacement PIN</h2>\n<p>To request a replacement Entity ID and Access PIN to view information online, please request a <a href=\"/sfassessor/s/contactsupport\" target=\"_self\">replacement notice</a>. You may\n    request this by navigating to the Additional Resources tab above and selecting General Inquiry which \n    will create a customer service case with our office.</p><br/>\n<h2 style=\"color:#217EA6;\">Accessing Additional Information</h2>\n<p>You can access additional information about your Accounts and Properties by clicking on the My Details tab above. There \n    you can also view your past filings, assessment history, and any customer service cases.<p>\n</div>"
      },
      "componentName" : "forceCommunity:htmlBlock",
      "id" : "4952a6da-7d8a-44ca-8b55-5b9b1a406d69",
      "renderPriority" : "NEUTRAL",
      "renditionMap" : { },
      "type" : "component"
    } ],
    "id" : "3d96ec18-ce49-41c2-920a-731a0eff2a48",
    "regionName" : "header",
    "type" : "region"
  }, {
    "components" : [ {
      "componentAttributes" : {
        "buttonLabel" : "Add Account/Property"
      },
      "componentName" : "c:businessAccountAccessManager",
      "id" : "c01ca73d-e120-437b-9f2a-23615462a301",
      "renderPriority" : "NEUTRAL",
      "renditionMap" : { },
      "type" : "component"
    }, {
      "componentAttributes" : {
        "richTextValue" : "<div style=\"background-color:white;padding:20px;border-style: solid;border-color: #eee;border-radius: 5px;\">\n<h2 style=\"color:#217EA6;\">Filing Statements and Viewing Property Details</h2>\n<p>To file BPP statements and/or exemptions forms, select the appropriate Property listed below and choose the File Property Statements or File Exemptions tab\n    to access our online filing system. You can also click on any of the Properties or Accounts linked to view information and request updates.</p>\n<br/>\n</div>"
      },
      "componentName" : "forceCommunity:htmlBlock",
      "id" : "63beef1d-89f4-4fab-a44e-81ff56b818fa",
      "renderPriority" : "NEUTRAL",
      "renditionMap" : { },
      "type" : "component"
    }, {
      "componentAttributes" : {
        "tabsetConfig" : {
          "UUID" : "59638702-9857-43d0-9c4c-8e2c3568b2e6",
          "activeTab" : "",
          "tabs" : [ {
            "UUID" : "1c683785-32b2-42f8-84d6-64348f5a4701",
            "allowGuestUser" : false,
            "locked" : false,
            "seedComponents" : [ ],
            "tabKey" : "1",
            "tabName" : "Properties"
          }, {
            "UUID" : "7b75ac90-edd0-4f6e-8f5d-3c16ee615865",
            "allowGuestUser" : false,
            "locked" : false,
            "seedComponents" : [ ],
            "tabKey" : "2",
            "tabName" : "Accounts/Businesses"
          } ],
          "useOverflowMenu" : false
        }
      },
      "componentName" : "forceCommunity:tabset",
      "id" : "59638702-9857-43d0-9c4c-8e2c3568b2e6",
      "regions" : [ {
        "components" : [ {
          "componentAttributes" : {
            "enableInlineEdit" : false,
            "listName" : "Taxpayer_My_Properties",
            "objectApiName" : "Property__c",
            "rows" : 50,
            "showActionBar" : false,
            "showRowLevelActions" : false,
            "showSearchBar" : false
          },
          "componentName" : "c:listView",
          "id" : "81862d9d-af64-4edf-97a0-eb483c307465",
          "renditionMap" : { },
          "type" : "component"
        } ],
        "id" : "1c683785-32b2-42f8-84d6-64348f5a4701",
        "regionLabel" : "Properties",
        "regionName" : "1",
        "renditionMap" : { },
        "type" : "region"
      }, {
        "components" : [ {
          "componentAttributes" : {
            "enableInlineEdit" : false,
            "listName" : "Taxpayer_My_Accounts",
            "objectApiName" : "Account",
            "rows" : 50,
            "showActionBar" : false,
            "showRowLevelActions" : false,
            "showSearchBar" : false
          },
          "componentName" : "c:listView",
          "id" : "7d25d508-8874-4733-bdee-700c200596a1",
          "renditionMap" : { },
          "type" : "component"
        } ],
        "id" : "7b75ac90-edd0-4f6e-8f5d-3c16ee615865",
        "regionLabel" : "Accounts/Businesses",
        "regionName" : "2",
        "renditionMap" : { },
        "type" : "region"
      } ],
      "renderPriority" : "NEUTRAL",
      "renditionMap" : { },
      "type" : "component"
    } ],
    "id" : "ba5f7dc7-4ecb-4e09-82af-71a1bd3dc3e7",
    "regionName" : "content",
    "type" : "region"
  }, {
    "id" : "d47898a9-8df4-4b57-8b49-28c2675f2633",
    "regionName" : "footer",
    "type" : "region"
  }, {
    "components" : [ {
      "componentAttributes" : {
        "description" : "",
        "metaTags" : "",
        "title" : "Home"
      },
      "componentName" : "forceCommunity:seoAssistant",
      "id" : "99542c4f-82b9-4d5e-87fb-f7636ed1501e",
      "renditionMap" : { },
      "type" : "component"
    } ],
    "id" : "5efdcf13-b47a-4c29-ae50-14651dddf39b",
    "regionName" : "sfdcHiddenRegion",
    "type" : "region"
  }, {
    "id" : "32558ae4-eb83-44a3-b40a-8888bb3600d2",
    "regionName" : "sidebar",
    "type" : "region"
  }, {
    "id" : "605538ec-65a9-4e14-9b02-484f78e67f47",
    "regionName" : "featured",
    "type" : "region"
  } ],
  "themeLayoutType" : "Inner",
  "type" : "view",
  "viewType" : "home"
}