{
  "appPageId" : "3ecf8350-c782-4489-b1fb-c85cdae7211f",
  "componentName" : "siteforce:sldsOneColLayout",
  "id" : "141dd029-269b-4b75-84d8-c0aa5e09cfee",
  "label" : "Login",
  "regions" : [ {
    "id" : "a3401839-f42c-4f69-b3b8-83fe202ecf65",
    "regionName" : "content",
    "type" : "region"
  }, {
    "components" : [ {
      "componentAttributes" : {
        "description" : "",
        "metaTags" : "",
        "title" : "Login"
      },
      "componentName" : "forceCommunity:seoAssistant",
      "id" : "6dbe256d-eee7-4c00-a896-f959a26ca10f",
      "renditionMap" : { },
      "type" : "component"
    } ],
    "id" : "e6dd25db-55d2-40ab-9b60-f253295f366d",
    "regionName" : "sfdcHiddenRegion",
    "type" : "region"
  } ],
  "themeLayoutType" : "Login",
  "type" : "view",
  "viewType" : "login-home"
}