{
  "appPageId" : "494e0424-18a7-4767-a4eb-e336e4bb9232",
  "componentName" : "siteforce:sldsTwoCol84Layout",
  "id" : "cff851f2-fe8b-4c4f-a48b-d5d11481b9ed",
  "label" : "Person Account",
  "regions" : [ {
    "components" : [ {
      "componentAttributes" : {
        "recordId" : "{!recordId}"
      },
      "componentName" : "forceCommunity:recordHeadline",
      "id" : "6bde256a-a2b7-46aa-8e22-1b4586825cbf",
      "renderPriority" : "NEUTRAL",
      "renditionMap" : { },
      "type" : "component"
    } ],
    "id" : "2dfa02e3-0726-4a64-bbd9-d7ec471252f1",
    "regionName" : "header",
    "type" : "region"
  }, {
    "components" : [ {
      "componentAttributes" : {
        "displayField" : "",
        "fieldSetName" : "PersonInfo",
        "numberOfColumns" : "2",
        "objectName1" : "Account",
        "title" : "Details"
      },
      "componentName" : "c:RecordDetailsFields",
      "id" : "75a00cc1-ca0a-4bee-bd27-8c581aa6866d",
      "renderPriority" : "NEUTRAL",
      "renditionMap" : { },
      "type" : "component"
    } ],
    "id" : "9fd54924-f45c-4a5e-8fe2-6e810faee80b",
    "regionName" : "content",
    "type" : "region"
  }, {
    "id" : "a470ed3a-cc01-4c2e-a693-bff0803967e1",
    "regionName" : "footer",
    "type" : "region"
  }, {
    "components" : [ {
      "componentAttributes" : {
        "description" : "",
        "metaTags" : "",
        "title" : "{!Record._Object}: {!Record._Title}"
      },
      "componentName" : "forceCommunity:seoAssistant",
      "id" : "ad908287-ead7-4604-8173-56576d172c88",
      "renditionMap" : { },
      "type" : "component"
    } ],
    "id" : "14ab7236-9abd-48a1-880e-7971a77df944",
    "regionName" : "sfdcHiddenRegion",
    "type" : "region"
  }, {
    "id" : "b7236281-6223-4d93-ba73-dd587e32f8f8",
    "regionName" : "sidebar",
    "type" : "region"
  } ],
  "themeLayoutType" : "Inner",
  "type" : "view",
  "viewType" : "detail-001"
}