{
  "appPageId" : "494e0424-18a7-4767-a4eb-e336e4bb9232",
  "componentName" : "siteforce:sldsOneColLayout",
  "id" : "10fc098e-43d2-45c6-9f6a-149156af9cf7",
  "label" : "Statement Related List",
  "regions" : [ {
    "id" : "f9a185c1-e8c1-4938-9dd2-0fb4d3e3c0cc",
    "regionName" : "header",
    "type" : "region"
  }, {
    "components" : [ {
      "componentAttributes" : {
        "customTitle" : "",
        "parentRecordId" : "{!recordId}",
        "relatedListName" : "{!relationshipApiName}",
        "showBreadCrumbs" : true,
        "showCustomTitle" : false,
        "showManualRefreshButton" : true,
        "showRowNumbers" : true
      },
      "componentName" : "forceCommunity:relatedList",
      "id" : "87a571be-24f2-4ab1-a868-2e289230ae55",
      "renderPriority" : "NEUTRAL",
      "renditionMap" : { },
      "type" : "component"
    } ],
    "id" : "97227ad3-c6fe-4884-8372-64906bab399e",
    "regionName" : "content",
    "type" : "region"
  }, {
    "id" : "dc50db52-2584-4e0d-8e39-a761d75239dd",
    "regionName" : "footer",
    "type" : "region"
  } ],
  "themeLayoutType" : "Inner",
  "type" : "view",
  "viewType" : "relatedlist-a1R"
}