{
  "appPageId" : "494e0424-18a7-4767-a4eb-e336e4bb9232",
  "componentName" : "siteforce:sldsOneColLayout",
  "id" : "7befb06e-1d23-427d-81b1-8da59ad10896",
  "label" : "Vessel Property",
  "regions" : [ {
    "components" : [ {
      "componentAttributes" : {
        "recordId" : "{!recordId}"
      },
      "componentName" : "forceCommunity:recordHeadline",
      "id" : "b25b4292-7ea7-4844-b70c-9ff6c5a5f58a",
      "renderPriority" : "NEUTRAL",
      "renditionMap" : { },
      "type" : "component"
    } ],
    "id" : "70bc9112-5813-4fa0-b810-520cb31d8483",
    "regionName" : "header",
    "type" : "region"
  }, {
    "components" : [ {
      "componentAttributes" : {
        "tabsetConfig" : {
          "UUID" : "8303f71f-dbcd-4487-9ba6-a9ea939f377d",
          "activeTab" : "",
          "tabs" : [ {
            "UUID" : "d0288241-a638-4ce3-837a-98129099e08b",
            "allowGuestUser" : false,
            "locked" : false,
            "seedComponents" : [ ],
            "tabKey" : "3ac32",
            "tabName" : "File Property Statements"
          }, {
            "UUID" : "8a0259ea-18ef-48a1-a292-e964870edb3f",
            "allowGuestUser" : false,
            "locked" : false,
            "seedComponents" : [ ],
            "tabKey" : "66867",
            "tabName" : "File Exemptions"
          }, {
            "UUID" : "cc221961-a865-454f-b9a4-d7d6ac94e7e2",
            "allowGuestUser" : false,
            "locked" : false,
            "seedComponents" : [ ],
            "tabKey" : "1",
            "tabName" : "Details & Related"
          }, {
            "UUID" : "4699a4f1-25c0-4900-b7cb-77d8659023df",
            "allowGuestUser" : false,
            "locked" : false,
            "seedComponents" : [ ],
            "tabKey" : "8d55e",
            "tabName" : "Request Vessel Updates"
          } ],
          "useOverflowMenu" : false
        }
      },
      "componentName" : "forceCommunity:tabset",
      "id" : "8303f71f-dbcd-4487-9ba6-a9ea939f377d",
      "regions" : [ {
        "components" : [ {
          "componentAttributes" : {
            "flowArguments" : "[{\"label\":\"VarPropertyId\",\"dataType\":\"String\",\"supportsRecordId\":true,\"value\":\"{!Record.Id}\"}]",
            "flowLayout" : "oneColumn",
            "flowName" : "Vessel_Filing_Questionnaire"
          },
          "componentName" : "forceCommunity:flowCommunity",
          "id" : "66a0f1f6-3068-48db-832e-1bda47e3e841",
          "renditionMap" : { },
          "type" : "component"
        } ],
        "id" : "d0288241-a638-4ce3-837a-98129099e08b",
        "regionLabel" : "File Property Statements",
        "regionName" : "3ac32",
        "renditionMap" : { },
        "type" : "region"
      }, {
        "components" : [ {
          "componentAttributes" : {
            "flowArguments" : "[{\"label\":\"recordID\",\"dataType\":\"String\",\"supportsRecordId\":true,\"value\":\"{!Record.Id}\"}]",
            "flowLayout" : "oneColumn",
            "flowName" : "CreateVesselPropertyStatement"
          },
          "componentName" : "forceCommunity:flowCommunity",
          "id" : "375be5ac-55e2-49e2-a691-6f9173ef689a",
          "renditionMap" : { },
          "type" : "component"
        } ],
        "id" : "8a0259ea-18ef-48a1-a292-e964870edb3f",
        "regionLabel" : "File Exemptions",
        "regionName" : "66867",
        "renditionMap" : { },
        "type" : "region"
      }, {
        "components" : [ {
          "componentAttributes" : {
            "displayField" : "",
            "fieldSetName" : "VesselProperty",
            "numberOfColumns" : "2",
            "objectName1" : "Property__c",
            "title" : "Property Information"
          },
          "componentName" : "c:RecordDetailsFields",
          "id" : "5033af39-5b87-4615-ba2d-f6f0af33469e",
          "renditionMap" : { },
          "type" : "component"
        }, {
          "componentAttributes" : {
            "relatedListApiName" : "Statements__r",
            "relatedListComponentOverride" : "GRID",
            "width" : "MEDIUM"
          },
          "componentName" : "forceCommunity:relatedListSingle",
          "id" : "0e8d42a1-b48a-4999-88e4-91911f004253",
          "renditionMap" : { },
          "type" : "component"
        } ],
        "id" : "cc221961-a865-454f-b9a4-d7d6ac94e7e2",
        "regionLabel" : "Details & Related",
        "regionName" : "1",
        "renditionMap" : { },
        "type" : "region"
      }, {
        "components" : [ {
          "componentAttributes" : {
            "flowArguments" : "[{\"label\":\"recordId\",\"dataType\":\"String\",\"supportsRecordId\":true,\"value\":\"{!recordId}\"}]",
            "flowLayout" : "oneColumn",
            "flowName" : "Vessel_Request_Update"
          },
          "componentName" : "forceCommunity:flowCommunity",
          "id" : "8e7d5c64-4149-40b0-8c02-d706860126ed",
          "renditionMap" : { },
          "type" : "component"
        } ],
        "id" : "4699a4f1-25c0-4900-b7cb-77d8659023df",
        "regionLabel" : "Request Vessel Updates",
        "regionName" : "8d55e",
        "renditionMap" : { },
        "type" : "region"
      } ],
      "renderPriority" : "NEUTRAL",
      "renditionMap" : { },
      "type" : "component"
    }, {
      "componentAttributes" : {
        "relatedListApiName" : "ActivityHistories",
        "relatedListComponentOverride" : "GRID",
        "width" : "MEDIUM"
      },
      "componentName" : "forceCommunity:relatedListSingle",
      "id" : "c2dbff52-7d5b-4b5f-9de1-e29c835d687e",
      "renderPriority" : "NEUTRAL",
      "renditionMap" : { },
      "type" : "component"
    } ],
    "id" : "8a6724ad-712b-4cd0-af43-525d2516d0f9",
    "regionName" : "content",
    "type" : "region"
  }, {
    "id" : "f8f6801d-0dea-4e2e-8f85-7eb5be2def26",
    "regionName" : "footer",
    "type" : "region"
  }, {
    "components" : [ {
      "componentAttributes" : {
        "description" : "",
        "metaTags" : "",
        "title" : "{!Record._Object}: {!Record._Title}"
      },
      "componentName" : "forceCommunity:seoAssistant",
      "id" : "d73dd663-b753-44a9-a83b-ad3b6aa5acc8",
      "renditionMap" : { },
      "type" : "component"
    } ],
    "id" : "d35c6e0b-4d84-4617-9e4f-838a7fff56b8",
    "regionName" : "sfdcHiddenRegion",
    "type" : "region"
  }, {
    "id" : "f882f9e5-d341-4e27-8956-4d49510980f5",
    "regionName" : "sidebar",
    "type" : "region"
  } ],
  "themeLayoutType" : "Inner",
  "type" : "view",
  "viewType" : "detail-a1G"
}