{
  "template" : {
    "attributes" : {
      "type" : "VIPForm__VIP_Template__c",
      "url" : "/services/data/v49.0/sobjects/VIPForm__VIP_Template__c/a0H35000001nGD2EAM"
    },
    "Uuid__c" : "bc6fedfc-e536-4eae-9252-61342d5a4482",
    "Name" : "BOE-268-B",
    "RecordTypeId" : "01235000000HKH6AAO",
    "VIPForm__Allow_Edit_After_Submit_Full_Form__c" : false,
    "VIPForm__Button_Delete_Exit_Exclude_by_User_Type__c" : "Guest;Community;Internal",
    "VIPForm__Button_PDF_Button_Exclude_User_Type__c" : "Guest;Internal",
    "VIPForm__Button_Save_Exclude_by_User_Type__c" : "Guest",
    "VIPForm__Button_Save_Exit_Exclude_by_User_Type__c" : "Guest;Community;Internal",
    "VIPForm__Card_Active__c" : false,
    "VIPForm__Conditional_Header_User__c" : "Guest;Community;Internal",
    "VIPForm__Create_New_Collection__c" : false,
    "VIPForm__Display_in_Lightning_Community__c" : false,
    "VIPForm__Form_Style__c" : "PROGRESS",
    "VIPForm__Form_Title__c" : "Free Public Library or Museum Exemption",
    "VIPForm__Hide_All_Top_Buttons__c" : false,
    "VIPForm__Hide_Logout_Icon__c" : false,
    "VIPForm__Hide_Section_Headers__c" : false,
    "VIPForm__Multilingual_Support__c" : "FORM_TEMPLATE",
    "VIPForm__Object_API_Name__c" : "Statement__c",
    "VIPForm__Object_Record_Type__c" : "Property Event Statement",
    "VIPForm__Print_Option__c" : "PDF",
    "VIPForm__Remove_Header__c" : false,
    "VIPForm__Return_URL_Community__c" : "https://config-sfassessor.cs33.force.com/sfassessor/s/",
    "VIPForm__Section_Header_Exclude_User_Type__c" : "Guest;Community;Internal",
    "VIPForm__Return_URL_Guest__c" : "https://config-sfassessor.cs33.force.com/sfassessor/s/",
    "VIPForm__Return_URL__c" : "https://asr--config.lightning.force.com/lightning/page/home",
    "VIPForm__Status__c" : "Active",
    "VIPForm__Template_Name_Variable__c" : "BusinessAccount__c",
    "VIPForm__Template_Stage__c" : "Details",
    "VIPForm__Top_Buttons_Exclude_User_Type__c" : "Guest;Community;Internal",
    "VIPForm__VIP_Form_Branding__c" : "a0B35000000nzGTEAY",
    "Id" : "a0H35000001nGD2EAM",
    "RecordType" : {
      "attributes" : {
        "type" : "RecordType",
        "url" : "/services/data/v49.0/sobjects/RecordType/01235000000HKH6AAO"
      },
      "Id" : "01235000000HKH6AAO",
      "DeveloperName" : "Parent_Template"
    }
  },
  "categories" : [ {
    "attributes" : {
      "type" : "VIPForm__VIP_Category__c",
      "url" : "/services/data/v49.0/sobjects/VIPForm__VIP_Category__c/a0835000008OiF9AAK"
    },
    "Uuid__c" : "a4fb3ccb-172e-4e5e-b838-a921dfafa01d",
    "Name" : "Attachments",
    "RecordTypeId" : "01235000000HKGaAAO",
    "VIPForm__Template__c" : "a0H35000001nGD2EAM",
    "VIPForm__Active__c" : true,
    "VIPForm__Inactive__c" : false,
    "VIPForm__Name_Displayed__c" : "Attachments",
    "VIPForm__Order__c" : 25,
    "Id" : "a0835000008OiF9AAK",
    "VIPForm__Components__r" : {
      "totalSize" : 4,
      "done" : true,
      "records" : [ {
        "attributes" : {
          "type" : "VIPForm__VIP_Component__c",
          "url" : "/services/data/v49.0/sobjects/VIPForm__VIP_Component__c/a0935000001ODTVAA4"
        },
        "VIPForm__Category__c" : "a0835000008OiF9AAK",
        "Id" : "a0935000001ODTVAA4",
        "Uuid__c" : "c4e6961f-ee82-4808-ba3a-f942e9483d0b",
        "Name" : "Checkbox Attach Copy of Lease Agreement",
        "RecordTypeId" : "01235000000HKGcAAO",
        "VIPForm__Add_to_Summary_PDF__c" : true,
        "VIPForm__Allow_Edit_after_Submit__c" : false,
        "VIPForm__Count__c" : "1",
        "VIPForm__Display_Help_Text__c" : false,
        "VIPForm__Do_Not_Allow_Delete_after_Submit__c" : false,
        "VIPForm__Fields_per_Row__c" : "2",
        "VIPForm__Field_Set_Overrides__c" : "[{\"isReadOnly\":false,\"isRequired\":true,\"inlineHelpText\":\"\",\"fieldLabel\":\"If first time filer: I have uploaded a copy of the lease or agreement.\",\"fieldAPI\":\"FreeLibraryUploadCopyOfAgreement__c\",\"sortOrder\":1}]",
        "VIPForm__Object_API_Name__c" : "Statement__c",
        "VIPForm__Order__c" : 20,
        "VIPForm__Read_Only__c" : false,
        "VIPForm__Record_Type_Name__c" : "Column LT 4",
        "VIPForm__Related_List_Limit__c" : 50,
        "VIPForm__Related_List_Record_Title_Field__c" : "Name",
        "VIPForm__Required__c" : false,
        "VIPForm__Require_Attachment_on_related_list__c" : false,
        "VIPForm__Show_Print_Form_Button__c" : false,
        "VIPForm__Show_Rich_Text_Area_and_Long_Text__c" : false,
        "VIPForm__Show_Submit_Button__c" : false,
        "RecordType" : {
          "attributes" : {
            "type" : "RecordType",
            "url" : "/services/data/v49.0/sobjects/RecordType/01235000000HKGcAAO"
          },
          "Id" : "01235000000HKGcAAO",
          "DeveloperName" : "Column_LT_4"
        },
        "VIPForm__Category__r" : {
          "attributes" : {
            "type" : "VIPForm__VIP_Category__c",
            "url" : "/services/data/v49.0/sobjects/VIPForm__VIP_Category__c/a0835000008OiF9AAK"
          },
          "Id" : "a0835000008OiF9AAK",
          "Uuid__c" : "a4fb3ccb-172e-4e5e-b838-a921dfafa01d"
        }
      }, {
        "attributes" : {
          "type" : "VIPForm__VIP_Component__c",
          "url" : "/services/data/v49.0/sobjects/VIPForm__VIP_Component__c/a0935000001ODTaAAO"
        },
        "VIPForm__Category__c" : "a0835000008OiF9AAK",
        "Id" : "a0935000001ODTaAAO",
        "Uuid__c" : "94f85b4d-5c4f-4737-b030-08a0ba7dc5d8",
        "Name" : "Checkbox Copy of Tax Return",
        "RecordTypeId" : "01235000000HKGcAAO",
        "VIPForm__Add_to_Summary_PDF__c" : true,
        "VIPForm__Allow_Edit_after_Submit__c" : false,
        "VIPForm__Conditional_Field__c" : "BookstoreUnrelatedBizTaxableIncome__c",
        "VIPForm__Conditional_Operator__c" : "=",
        "VIPForm__Conditional_Value__c" : "Yes",
        "VIPForm__Count__c" : "1",
        "VIPForm__Display_Help_Text__c" : false,
        "VIPForm__Do_Not_Allow_Delete_after_Submit__c" : false,
        "VIPForm__Fields_per_Row__c" : "2",
        "VIPForm__Field_Set_Overrides__c" : "[{\"isReadOnly\":false,\"isRequired\":true,\"inlineHelpText\":\"\",\"fieldLabel\":\"I have uploaded a copy of the institution’s most recent tax return filed with the Internal Revenue Service. \",\"fieldAPI\":\"FreeLibraryUploadTaxReturn__c\",\"sortOrder\":1}]",
        "VIPForm__Object_API_Name__c" : "Statement__c",
        "VIPForm__Order__c" : 30,
        "VIPForm__Read_Only__c" : false,
        "VIPForm__Record_Type_Name__c" : "Column LT 4",
        "VIPForm__Related_List_Limit__c" : 50,
        "VIPForm__Related_List_Record_Title_Field__c" : "Name",
        "VIPForm__Required__c" : false,
        "VIPForm__Require_Attachment_on_related_list__c" : false,
        "VIPForm__Show_Print_Form_Button__c" : false,
        "VIPForm__Show_Rich_Text_Area_and_Long_Text__c" : false,
        "VIPForm__Show_Submit_Button__c" : false,
        "RecordType" : {
          "attributes" : {
            "type" : "RecordType",
            "url" : "/services/data/v49.0/sobjects/RecordType/01235000000HKGcAAO"
          },
          "Id" : "01235000000HKGcAAO",
          "DeveloperName" : "Column_LT_4"
        },
        "VIPForm__Category__r" : {
          "attributes" : {
            "type" : "VIPForm__VIP_Category__c",
            "url" : "/services/data/v49.0/sobjects/VIPForm__VIP_Category__c/a0835000008OiF9AAK"
          },
          "Id" : "a0835000008OiF9AAK",
          "Uuid__c" : "a4fb3ccb-172e-4e5e-b838-a921dfafa01d"
        }
      }, {
        "attributes" : {
          "type" : "VIPForm__VIP_Component__c",
          "url" : "/services/data/v49.0/sobjects/VIPForm__VIP_Component__c/a0935000001REetAAG"
        },
        "VIPForm__Category__c" : "a0835000008OiF9AAK",
        "Id" : "a0935000001REetAAG",
        "Uuid__c" : "2146135e-1148-4575-8000-62fddd7360a0",
        "Name" : "Form Banner",
        "RecordTypeId" : "01235000000HKGeAAO",
        "VIPForm__Add_to_Summary_PDF__c" : true,
        "VIPForm__Allow_Edit_after_Submit__c" : false,
        "VIPForm__Display_Help_Text__c" : false,
        "VIPForm__Do_Not_Allow_Delete_after_Submit__c" : false,
        "VIPForm__Narration_Text__c" : "<p style=\"text-align: center;\"><b style=\"font-size: 18px; color: rgb(62, 62, 60);\">BOE-268-B: FREE PUBLIC LIBRARY OR FREE MUSEUM CLAIM</b></p>",
        "VIPForm__Object_API_Name__c" : "Statement__c",
        "VIPForm__Order__c" : 9,
        "VIPForm__Read_Only__c" : false,
        "VIPForm__Record_Type_Name__c" : "Narration",
        "VIPForm__Related_List_Limit__c" : 50,
        "VIPForm__Related_List_Record_Title_Field__c" : "Name",
        "VIPForm__Required__c" : false,
        "VIPForm__Require_Attachment_on_related_list__c" : false,
        "VIPForm__Show_Print_Form_Button__c" : false,
        "VIPForm__Show_Rich_Text_Area_and_Long_Text__c" : false,
        "VIPForm__Show_Submit_Button__c" : false,
        "RecordType" : {
          "attributes" : {
            "type" : "RecordType",
            "url" : "/services/data/v49.0/sobjects/RecordType/01235000000HKGeAAO"
          },
          "Id" : "01235000000HKGeAAO",
          "DeveloperName" : "Narration"
        },
        "VIPForm__Category__r" : {
          "attributes" : {
            "type" : "VIPForm__VIP_Category__c",
            "url" : "/services/data/v49.0/sobjects/VIPForm__VIP_Category__c/a0835000008OiF9AAK"
          },
          "Id" : "a0835000008OiF9AAK",
          "Uuid__c" : "a4fb3ccb-172e-4e5e-b838-a921dfafa01d"
        }
      }, {
        "attributes" : {
          "type" : "VIPForm__VIP_Component__c",
          "url" : "/services/data/v49.0/sobjects/VIPForm__VIP_Component__c/a0935000001OBUqAAO"
        },
        "VIPForm__Category__c" : "a0835000008OiF9AAK",
        "Id" : "a0935000001OBUqAAO",
        "Uuid__c" : "7bc46fdc-1bed-4d6d-a4e4-19c30a7cedab",
        "Name" : "Free Public Library/Museum Attachments",
        "RecordTypeId" : "01235000000HKGkAAO",
        "VIPForm__Add_to_Summary_PDF__c" : true,
        "VIPForm__Allow_Edit_after_Submit__c" : false,
        "VIPForm__Display_Help_Text__c" : false,
        "VIPForm__Do_Not_Allow_Delete_after_Submit__c" : false,
        "VIPForm__Object_API_Name__c" : "ContentDocumentLink",
        "VIPForm__Order__c" : 10,
        "VIPForm__Parent_Obj_API_Name__c" : "Statement__c",
        "VIPForm__Read_Only__c" : false,
        "VIPForm__Record_Type_Name__c" : "Upload",
        "VIPForm__Related_List_Limit__c" : 50,
        "VIPForm__Related_List_Record_Title_Field__c" : "Name",
        "VIPForm__Relationship_Field__c" : "LinkedEntityId",
        "VIPForm__Required__c" : false,
        "VIPForm__Require_Attachment_on_related_list__c" : false,
        "VIPForm__Show_Print_Form_Button__c" : false,
        "VIPForm__Show_Rich_Text_Area_and_Long_Text__c" : false,
        "VIPForm__Show_Submit_Button__c" : false,
        "VIPForm__Text_Box__c" : "<p><span style=\"font-size: 15px; font-family: Slack-Lato, appleLogo, sans-serif;\">Based on your previous response, you&#39;re required to submit supporting information</span></p>",
        "VIPForm__Title_Displayed__c" : "Attachments",
        "VIPForm__Upload_Type__c" : "Files",
        "RecordType" : {
          "attributes" : {
            "type" : "RecordType",
            "url" : "/services/data/v49.0/sobjects/RecordType/01235000000HKGkAAO"
          },
          "Id" : "01235000000HKGkAAO",
          "DeveloperName" : "Upload"
        },
        "VIPForm__Category__r" : {
          "attributes" : {
            "type" : "VIPForm__VIP_Category__c",
            "url" : "/services/data/v49.0/sobjects/VIPForm__VIP_Category__c/a0835000008OiF9AAK"
          },
          "Id" : "a0835000008OiF9AAK",
          "Uuid__c" : "a4fb3ccb-172e-4e5e-b838-a921dfafa01d"
        }
      } ]
    },
    "RecordType" : {
      "attributes" : {
        "type" : "RecordType",
        "url" : "/services/data/v49.0/sobjects/RecordType/01235000000HKGaAAO"
      },
      "Id" : "01235000000HKGaAAO",
      "DeveloperName" : "VIP_Form_Section"
    },
    "VIPForm__Template__r" : {
      "attributes" : {
        "type" : "VIPForm__VIP_Template__c",
        "url" : "/services/data/v49.0/sobjects/VIPForm__VIP_Template__c/a0H35000001nGD2EAM"
      },
      "Id" : "a0H35000001nGD2EAM",
      "Uuid__c" : "bc6fedfc-e536-4eae-9252-61342d5a4482"
    }
  }, {
    "attributes" : {
      "type" : "VIPForm__VIP_Category__c",
      "url" : "/services/data/v49.0/sobjects/VIPForm__VIP_Category__c/a0835000008OiFAAA0"
    },
    "Uuid__c" : "8b993856-5c16-4c4c-a767-62da7453aa74",
    "Name" : "Certification (Free Public Library/Museum Exemption)",
    "RecordTypeId" : "01235000000HKGaAAO",
    "VIPForm__Template__c" : "a0H35000001nGD2EAM",
    "VIPForm__Active__c" : true,
    "VIPForm__Inactive__c" : false,
    "VIPForm__Name_Displayed__c" : "Certification",
    "VIPForm__Order__c" : 50,
    "Id" : "a0835000008OiFAAA0",
    "VIPForm__Components__r" : {
      "totalSize" : 5,
      "done" : true,
      "records" : [ {
        "attributes" : {
          "type" : "VIPForm__VIP_Component__c",
          "url" : "/services/data/v49.0/sobjects/VIPForm__VIP_Component__c/a0935000001OBUrAAO"
        },
        "VIPForm__Category__c" : "a0835000008OiFAAA0",
        "Id" : "a0935000001OBUrAAO",
        "Uuid__c" : "86cd3e21-c6ff-4dbd-9191-74ee05f50de7",
        "Name" : "Certification",
        "RecordTypeId" : "01235000000HKGcAAO",
        "VIPForm__Add_to_Summary_PDF__c" : true,
        "VIPForm__Allow_Edit_after_Submit__c" : false,
        "VIPForm__Count__c" : "2",
        "VIPForm__Display_Help_Text__c" : true,
        "VIPForm__Do_Not_Allow_Delete_after_Submit__c" : false,
        "VIPForm__Fields_per_Row__c" : "2",
        "VIPForm__Field_Set_Overrides__c" : "[{\"isReadOnly\":false,\"isRequired\":true,\"inlineHelpText\":\"\",\"fieldLabel\":\"Claimant Name - First\",\"fieldAPI\":\"ClaimantNameFirst__c\",\"sortOrder\":1},{\"isReadOnly\":false,\"isRequired\":false,\"inlineHelpText\":\"\",\"fieldLabel\":\"Claimant Name - Middle\",\"fieldAPI\":\"ClaimantNameMiddle__c\",\"sortOrder\":2},{\"isReadOnly\":false,\"isRequired\":true,\"inlineHelpText\":\"Name of Person Making Claim\",\"fieldLabel\":\"Claimant Name - Last\",\"fieldAPI\":\"ClaimantNameLast__c\",\"sortOrder\":3},{\"isReadOnly\":false,\"isRequired\":true,\"inlineHelpText\":\"\",\"fieldLabel\":\"Claimant Title\",\"fieldAPI\":\"ClaimantTitle__c\",\"sortOrder\":4},{\"isReadOnly\":false,\"isRequired\":true,\"inlineHelpText\":\"\",\"fieldLabel\":\"Signature\",\"fieldAPI\":\"Signature__c\",\"sortOrder\":5},{\"isReadOnly\":true,\"isRequired\":false,\"inlineHelpText\":\"The Signature Date will be populated upon submission.\",\"fieldLabel\":\"Signature Date\",\"fieldAPI\":\"DateofSignature__c\",\"sortOrder\":6}]",
        "VIPForm__Object_API_Name__c" : "Statement__c",
        "VIPForm__Order__c" : 10,
        "VIPForm__Read_Only__c" : false,
        "VIPForm__Record_Type_Name__c" : "Column LT 4",
        "VIPForm__Related_List_Limit__c" : 50,
        "VIPForm__Related_List_Record_Title_Field__c" : "Name",
        "VIPForm__Required__c" : false,
        "VIPForm__Require_Attachment_on_related_list__c" : false,
        "VIPForm__Show_Print_Form_Button__c" : false,
        "VIPForm__Show_Rich_Text_Area_and_Long_Text__c" : false,
        "VIPForm__Show_Submit_Button__c" : false,
        "VIPForm__Text_Box__c" : "<p style=\"text-align: center;\">I certify (or declare) under penalty of perjury under the laws of the State of California that the foregoing and all information contained herein, including any accompanying statements or documents, is true, correct, and complete to the best of my knowledge and belief.</p>",
        "VIPForm__Title_Displayed__c" : "Certification",
        "RecordType" : {
          "attributes" : {
            "type" : "RecordType",
            "url" : "/services/data/v49.0/sobjects/RecordType/01235000000HKGcAAO"
          },
          "Id" : "01235000000HKGcAAO",
          "DeveloperName" : "Column_LT_4"
        },
        "VIPForm__Category__r" : {
          "attributes" : {
            "type" : "VIPForm__VIP_Category__c",
            "url" : "/services/data/v49.0/sobjects/VIPForm__VIP_Category__c/a0835000008OiFAAA0"
          },
          "Id" : "a0835000008OiFAAA0",
          "Uuid__c" : "8b993856-5c16-4c4c-a767-62da7453aa74"
        }
      }, {
        "attributes" : {
          "type" : "VIPForm__VIP_Component__c",
          "url" : "/services/data/v49.0/sobjects/VIPForm__VIP_Component__c/a0935000001REeuAAG"
        },
        "VIPForm__Category__c" : "a0835000008OiFAAA0",
        "Id" : "a0935000001REeuAAG",
        "Uuid__c" : "df11b4d4-6c13-4f8f-9151-c0a65506f4c3",
        "Name" : "Declaration",
        "RecordTypeId" : "01235000000HKGeAAO",
        "VIPForm__Add_to_Summary_PDF__c" : true,
        "VIPForm__Allow_Edit_after_Submit__c" : false,
        "VIPForm__Display_Help_Text__c" : false,
        "VIPForm__Do_Not_Allow_Delete_after_Submit__c" : false,
        "VIPForm__Narration_Text__c" : "<p><i style=\"font-size: 14px;\">THIS STATEMENT IS SUBJECT TO AUDIT</i></p>",
        "VIPForm__Object_API_Name__c" : "Statement__c",
        "VIPForm__Order__c" : 19,
        "VIPForm__Read_Only__c" : false,
        "VIPForm__Record_Type_Name__c" : "Narration",
        "VIPForm__Related_List_Limit__c" : 50,
        "VIPForm__Related_List_Record_Title_Field__c" : "Name",
        "VIPForm__Required__c" : false,
        "VIPForm__Require_Attachment_on_related_list__c" : false,
        "VIPForm__Show_Print_Form_Button__c" : false,
        "VIPForm__Show_Rich_Text_Area_and_Long_Text__c" : false,
        "VIPForm__Show_Submit_Button__c" : false,
        "RecordType" : {
          "attributes" : {
            "type" : "RecordType",
            "url" : "/services/data/v49.0/sobjects/RecordType/01235000000HKGeAAO"
          },
          "Id" : "01235000000HKGeAAO",
          "DeveloperName" : "Narration"
        },
        "VIPForm__Category__r" : {
          "attributes" : {
            "type" : "VIPForm__VIP_Category__c",
            "url" : "/services/data/v49.0/sobjects/VIPForm__VIP_Category__c/a0835000008OiFAAA0"
          },
          "Id" : "a0835000008OiFAAA0",
          "Uuid__c" : "8b993856-5c16-4c4c-a767-62da7453aa74"
        }
      }, {
        "attributes" : {
          "type" : "VIPForm__VIP_Component__c",
          "url" : "/services/data/v49.0/sobjects/VIPForm__VIP_Component__c/a0935000001REevAAG"
        },
        "VIPForm__Category__c" : "a0835000008OiFAAA0",
        "Id" : "a0935000001REevAAG",
        "Uuid__c" : "c2a21b51-63f5-40c0-b070-a6668a360adc",
        "Name" : "Form Banner",
        "RecordTypeId" : "01235000000HKGeAAO",
        "VIPForm__Add_to_Summary_PDF__c" : true,
        "VIPForm__Allow_Edit_after_Submit__c" : false,
        "VIPForm__Display_Help_Text__c" : false,
        "VIPForm__Do_Not_Allow_Delete_after_Submit__c" : false,
        "VIPForm__Narration_Text__c" : "<p style=\"text-align: center;\"><b style=\"font-size: 18px; color: rgb(62, 62, 60);\">BOE-268-B: FREE PUBLIC LIBRARY OR FREE MUSEUM CLAIM</b></p>",
        "VIPForm__Object_API_Name__c" : "Statement__c",
        "VIPForm__Order__c" : 9,
        "VIPForm__Read_Only__c" : false,
        "VIPForm__Record_Type_Name__c" : "Narration",
        "VIPForm__Related_List_Limit__c" : 50,
        "VIPForm__Related_List_Record_Title_Field__c" : "Name",
        "VIPForm__Required__c" : false,
        "VIPForm__Require_Attachment_on_related_list__c" : false,
        "VIPForm__Show_Print_Form_Button__c" : false,
        "VIPForm__Show_Rich_Text_Area_and_Long_Text__c" : false,
        "VIPForm__Show_Submit_Button__c" : false,
        "RecordType" : {
          "attributes" : {
            "type" : "RecordType",
            "url" : "/services/data/v49.0/sobjects/RecordType/01235000000HKGeAAO"
          },
          "Id" : "01235000000HKGeAAO",
          "DeveloperName" : "Narration"
        },
        "VIPForm__Category__r" : {
          "attributes" : {
            "type" : "VIPForm__VIP_Category__c",
            "url" : "/services/data/v49.0/sobjects/VIPForm__VIP_Category__c/a0835000008OiFAAA0"
          },
          "Id" : "a0835000008OiFAAA0",
          "Uuid__c" : "8b993856-5c16-4c4c-a767-62da7453aa74"
        }
      }, {
        "attributes" : {
          "type" : "VIPForm__VIP_Component__c",
          "url" : "/services/data/v49.0/sobjects/VIPForm__VIP_Component__c/a0935000001OBUsAAO"
        },
        "VIPForm__Category__c" : "a0835000008OiFAAA0",
        "Id" : "a0935000001OBUsAAO",
        "Uuid__c" : "40acc6d6-88ad-4010-8b8b-8c729b7d56a1",
        "Name" : "Submit Form (Free Public Museum/Library)",
        "RecordTypeId" : "01235000000HKGjAAO",
        "VIPForm__Add_to_Summary_PDF__c" : true,
        "VIPForm__Allow_Edit_after_Submit__c" : false,
        "VIPForm__Conditional_Field__c" : "FreeMuseumLibraryCanSubmitProfile__c",
        "VIPForm__Conditional_Operator__c" : "=",
        "VIPForm__Conditional_Value__c" : "Taxpayer",
        "VIPForm__Display_Help_Text__c" : false,
        "VIPForm__Do_Not_Allow_Delete_after_Submit__c" : false,
        "VIPForm__Narration_Text__c" : "<p>Once you have filled out all the required information in each section, you will be able to submit this form.</p>",
        "VIPForm__Object_API_Name__c" : "Statement__c",
        "VIPForm__Order__c" : 20,
        "VIPForm__Read_Only__c" : false,
        "VIPForm__Record_Type_Name__c" : "Submit",
        "VIPForm__Related_List_Limit__c" : 50,
        "VIPForm__Related_List_Record_Title_Field__c" : "Name",
        "VIPForm__Required__c" : false,
        "VIPForm__Require_Attachment_on_related_list__c" : false,
        "VIPForm__Return_URL_Variable__c" : "Id",
        "VIPForm__Return_URL__c" : "https://config-sfassessor.cs33.force.com/sfassessor/s/confirmation-page?recordId=",
        "VIPForm__Show_Print_Form_Button__c" : false,
        "VIPForm__Show_Rich_Text_Area_and_Long_Text__c" : false,
        "VIPForm__Show_Submit_Button__c" : false,
        "VIPForm__Title_Displayed__c" : "Form Submission",
        "VIPForm__Upload_Type__c" : "Files",
        "RecordType" : {
          "attributes" : {
            "type" : "RecordType",
            "url" : "/services/data/v49.0/sobjects/RecordType/01235000000HKGjAAO"
          },
          "Id" : "01235000000HKGjAAO",
          "DeveloperName" : "Submit"
        },
        "VIPForm__Category__r" : {
          "attributes" : {
            "type" : "VIPForm__VIP_Category__c",
            "url" : "/services/data/v49.0/sobjects/VIPForm__VIP_Category__c/a0835000008OiFAAA0"
          },
          "Id" : "a0835000008OiFAAA0",
          "Uuid__c" : "8b993856-5c16-4c4c-a767-62da7453aa74"
        }
      }, {
        "attributes" : {
          "type" : "VIPForm__VIP_Component__c",
          "url" : "/services/data/v49.0/sobjects/VIPForm__VIP_Component__c/a0935000001REfGAAW"
        },
        "VIPForm__Category__c" : "a0835000008OiFAAA0",
        "Id" : "a0935000001REfGAAW",
        "Uuid__c" : "bc910bac-d7a7-4484-b676-ee095f0bd1f0",
        "Name" : "Submit Form (Free Public Museum/Library) - ASR",
        "RecordTypeId" : "01235000000HKGjAAO",
        "VIPForm__Add_to_Summary_PDF__c" : true,
        "VIPForm__Allow_Edit_after_Submit__c" : false,
        "VIPForm__Conditional_Field__c" : "FreeMuseumLibraryCanSubmitProfile__c",
        "VIPForm__Conditional_Operator__c" : "=",
        "VIPForm__Conditional_Value__c" : "ASR",
        "VIPForm__Display_Help_Text__c" : false,
        "VIPForm__Do_Not_Allow_Delete_after_Submit__c" : false,
        "VIPForm__Narration_Text__c" : "<p>Once you have filled out all the required information in each section, you will be able to submit this form.</p>",
        "VIPForm__Object_API_Name__c" : "Statement__c",
        "VIPForm__Order__c" : 20,
        "VIPForm__Read_Only__c" : false,
        "VIPForm__Record_Type_Name__c" : "Submit",
        "VIPForm__Related_List_Limit__c" : 50,
        "VIPForm__Related_List_Record_Title_Field__c" : "Name",
        "VIPForm__Required__c" : false,
        "VIPForm__Require_Attachment_on_related_list__c" : false,
        "VIPForm__Return_URL_Variable__c" : "Id",
        "VIPForm__Return_URL__c" : "https://asr--config.my.salesforce.com/",
        "VIPForm__Show_Print_Form_Button__c" : false,
        "VIPForm__Show_Rich_Text_Area_and_Long_Text__c" : false,
        "VIPForm__Show_Submit_Button__c" : false,
        "VIPForm__Title_Displayed__c" : "Form Submission",
        "VIPForm__Upload_Type__c" : "Files",
        "RecordType" : {
          "attributes" : {
            "type" : "RecordType",
            "url" : "/services/data/v49.0/sobjects/RecordType/01235000000HKGjAAO"
          },
          "Id" : "01235000000HKGjAAO",
          "DeveloperName" : "Submit"
        },
        "VIPForm__Category__r" : {
          "attributes" : {
            "type" : "VIPForm__VIP_Category__c",
            "url" : "/services/data/v49.0/sobjects/VIPForm__VIP_Category__c/a0835000008OiFAAA0"
          },
          "Id" : "a0835000008OiFAAA0",
          "Uuid__c" : "8b993856-5c16-4c4c-a767-62da7453aa74"
        }
      } ]
    },
    "RecordType" : {
      "attributes" : {
        "type" : "RecordType",
        "url" : "/services/data/v49.0/sobjects/RecordType/01235000000HKGaAAO"
      },
      "Id" : "01235000000HKGaAAO",
      "DeveloperName" : "VIP_Form_Section"
    },
    "VIPForm__Template__r" : {
      "attributes" : {
        "type" : "VIPForm__VIP_Template__c",
        "url" : "/services/data/v49.0/sobjects/VIPForm__VIP_Template__c/a0H35000001nGD2EAM"
      },
      "Id" : "a0H35000001nGD2EAM",
      "Uuid__c" : "bc6fedfc-e536-4eae-9252-61342d5a4482"
    }
  }, {
    "attributes" : {
      "type" : "VIPForm__VIP_Category__c",
      "url" : "/services/data/v49.0/sobjects/VIPForm__VIP_Category__c/a0835000008OiFBAA0"
    },
    "Uuid__c" : "2b9d5773-ba7c-4b4b-80c0-d4b08c494446",
    "Name" : "Contact Info (Free Public Library/Museum Exemption)",
    "RecordTypeId" : "01235000000HKGaAAO",
    "VIPForm__Template__c" : "a0H35000001nGD2EAM",
    "VIPForm__Active__c" : true,
    "VIPForm__Inactive__c" : false,
    "VIPForm__Name_Displayed__c" : "Contact Info",
    "VIPForm__Order__c" : 40,
    "Id" : "a0835000008OiFBAA0",
    "VIPForm__Components__r" : {
      "totalSize" : 2,
      "done" : true,
      "records" : [ {
        "attributes" : {
          "type" : "VIPForm__VIP_Component__c",
          "url" : "/services/data/v49.0/sobjects/VIPForm__VIP_Component__c/a0935000001OBUtAAO"
        },
        "VIPForm__Category__c" : "a0835000008OiFBAA0",
        "Id" : "a0935000001OBUtAAO",
        "Uuid__c" : "2aa6bf72-bf04-4434-b3f3-1850bb62248b",
        "Name" : "Contact Info",
        "RecordTypeId" : "01235000000HKGcAAO",
        "VIPForm__Add_to_Summary_PDF__c" : true,
        "VIPForm__Allow_Edit_after_Submit__c" : false,
        "VIPForm__Count__c" : "2",
        "VIPForm__Display_Help_Text__c" : false,
        "VIPForm__Do_Not_Allow_Delete_after_Submit__c" : false,
        "VIPForm__Fields_per_Row__c" : "2",
        "VIPForm__Field_Set_Overrides__c" : "[{\"isReadOnly\":false,\"isRequired\":true,\"inlineHelpText\":\"\",\"fieldLabel\":\"Name\",\"fieldAPI\":\"NormalBusinessHoursContactName__c\",\"sortOrder\":1},{\"isReadOnly\":false,\"isRequired\":true,\"inlineHelpText\":\"\",\"fieldLabel\":\"Title\",\"fieldAPI\":\"ContactTitle__c\",\"sortOrder\":2},{\"isReadOnly\":false,\"isRequired\":false,\"inlineHelpText\":\"\",\"fieldLabel\":\"Daytime Telephone\",\"fieldAPI\":\"ContactPhone__c\",\"sortOrder\":3},{\"isReadOnly\":false,\"isRequired\":true,\"inlineHelpText\":\"\",\"fieldLabel\":\"Email Address\",\"fieldAPI\":\"ContactEmailAddress__c\",\"sortOrder\":4},{\"isReadOnly\":false,\"isRequired\":false,\"inlineHelpText\":\"\",\"fieldLabel\":\"Website Address\",\"fieldAPI\":\"WebsiteAddress__c\",\"sortOrder\":5},{\"isReadOnly\":false,\"isRequired\":true,\"inlineHelpText\":\"\",\"fieldLabel\":\"Changes from Last Year's Filing?\",\"fieldAPI\":\"ChangesFromLastYearsFiling__c\",\"sortOrder\":6}]",
        "VIPForm__Object_API_Name__c" : "Statement__c",
        "VIPForm__Order__c" : 10,
        "VIPForm__Read_Only__c" : false,
        "VIPForm__Record_Type_Name__c" : "Column LT 4",
        "VIPForm__Related_List_Limit__c" : 50,
        "VIPForm__Related_List_Record_Title_Field__c" : "Name",
        "VIPForm__Required__c" : false,
        "VIPForm__Require_Attachment_on_related_list__c" : false,
        "VIPForm__Show_Print_Form_Button__c" : false,
        "VIPForm__Show_Rich_Text_Area_and_Long_Text__c" : false,
        "VIPForm__Show_Submit_Button__c" : false,
        "VIPForm__Title_Displayed__c" : "Whom should we contact during normal business hours for additional information?",
        "RecordType" : {
          "attributes" : {
            "type" : "RecordType",
            "url" : "/services/data/v49.0/sobjects/RecordType/01235000000HKGcAAO"
          },
          "Id" : "01235000000HKGcAAO",
          "DeveloperName" : "Column_LT_4"
        },
        "VIPForm__Category__r" : {
          "attributes" : {
            "type" : "VIPForm__VIP_Category__c",
            "url" : "/services/data/v49.0/sobjects/VIPForm__VIP_Category__c/a0835000008OiFBAA0"
          },
          "Id" : "a0835000008OiFBAA0",
          "Uuid__c" : "2b9d5773-ba7c-4b4b-80c0-d4b08c494446"
        }
      }, {
        "attributes" : {
          "type" : "VIPForm__VIP_Component__c",
          "url" : "/services/data/v49.0/sobjects/VIPForm__VIP_Component__c/a0935000001REewAAG"
        },
        "VIPForm__Category__c" : "a0835000008OiFBAA0",
        "Id" : "a0935000001REewAAG",
        "Uuid__c" : "3c1afb27-9b12-45d5-8ece-ba7b944decb7",
        "Name" : "Form Banner",
        "RecordTypeId" : "01235000000HKGeAAO",
        "VIPForm__Add_to_Summary_PDF__c" : true,
        "VIPForm__Allow_Edit_after_Submit__c" : false,
        "VIPForm__Display_Help_Text__c" : false,
        "VIPForm__Do_Not_Allow_Delete_after_Submit__c" : false,
        "VIPForm__Narration_Text__c" : "<p style=\"text-align: center;\"><b style=\"font-size: 18px; color: rgb(62, 62, 60);\">BOE-268-B: FREE PUBLIC LIBRARY OR FREE MUSEUM CLAIM</b></p>",
        "VIPForm__Object_API_Name__c" : "Statement__c",
        "VIPForm__Order__c" : 9,
        "VIPForm__Read_Only__c" : false,
        "VIPForm__Record_Type_Name__c" : "Narration",
        "VIPForm__Related_List_Limit__c" : 50,
        "VIPForm__Related_List_Record_Title_Field__c" : "Name",
        "VIPForm__Required__c" : false,
        "VIPForm__Require_Attachment_on_related_list__c" : false,
        "VIPForm__Show_Print_Form_Button__c" : false,
        "VIPForm__Show_Rich_Text_Area_and_Long_Text__c" : false,
        "VIPForm__Show_Submit_Button__c" : false,
        "RecordType" : {
          "attributes" : {
            "type" : "RecordType",
            "url" : "/services/data/v49.0/sobjects/RecordType/01235000000HKGeAAO"
          },
          "Id" : "01235000000HKGeAAO",
          "DeveloperName" : "Narration"
        },
        "VIPForm__Category__r" : {
          "attributes" : {
            "type" : "VIPForm__VIP_Category__c",
            "url" : "/services/data/v49.0/sobjects/VIPForm__VIP_Category__c/a0835000008OiFBAA0"
          },
          "Id" : "a0835000008OiFBAA0",
          "Uuid__c" : "2b9d5773-ba7c-4b4b-80c0-d4b08c494446"
        }
      } ]
    },
    "RecordType" : {
      "attributes" : {
        "type" : "RecordType",
        "url" : "/services/data/v49.0/sobjects/RecordType/01235000000HKGaAAO"
      },
      "Id" : "01235000000HKGaAAO",
      "DeveloperName" : "VIP_Form_Section"
    },
    "VIPForm__Template__r" : {
      "attributes" : {
        "type" : "VIPForm__VIP_Template__c",
        "url" : "/services/data/v49.0/sobjects/VIPForm__VIP_Template__c/a0H35000001nGD2EAM"
      },
      "Id" : "a0H35000001nGD2EAM",
      "Uuid__c" : "bc6fedfc-e536-4eae-9252-61342d5a4482"
    }
  }, {
    "attributes" : {
      "type" : "VIPForm__VIP_Category__c",
      "url" : "/services/data/v49.0/sobjects/VIPForm__VIP_Category__c/a0835000008OiFCAA0"
    },
    "Uuid__c" : "9c6b26a8-a02c-4b3b-9212-5513ff984b3e",
    "Name" : "Exemption Info",
    "RecordTypeId" : "01235000000HKGaAAO",
    "VIPForm__Template__c" : "a0H35000001nGD2EAM",
    "VIPForm__Active__c" : true,
    "VIPForm__Inactive__c" : false,
    "VIPForm__Name_Displayed__c" : "Exemption Info",
    "VIPForm__Order__c" : 20,
    "Id" : "a0835000008OiFCAA0",
    "VIPForm__Components__r" : {
      "totalSize" : 11,
      "done" : true,
      "records" : [ {
        "attributes" : {
          "type" : "VIPForm__VIP_Component__c",
          "url" : "/services/data/v49.0/sobjects/VIPForm__VIP_Component__c/a0935000001REexAAG"
        },
        "VIPForm__Category__c" : "a0835000008OiFCAA0",
        "Id" : "a0935000001REexAAG",
        "Uuid__c" : "95fc3fb1-5e62-41c1-a5a5-f7aa1f8cf16d",
        "Name" : "Form Banner",
        "RecordTypeId" : "01235000000HKGeAAO",
        "VIPForm__Add_to_Summary_PDF__c" : true,
        "VIPForm__Allow_Edit_after_Submit__c" : false,
        "VIPForm__Display_Help_Text__c" : false,
        "VIPForm__Do_Not_Allow_Delete_after_Submit__c" : false,
        "VIPForm__Narration_Text__c" : "<p style=\"text-align: center;\"><b style=\"font-size: 18px; color: rgb(62, 62, 60);\">BOE-268-B: FREE PUBLIC LIBRARY OR FREE MUSEUM CLAIM</b></p>",
        "VIPForm__Object_API_Name__c" : "Statement__c",
        "VIPForm__Order__c" : 9,
        "VIPForm__Read_Only__c" : false,
        "VIPForm__Record_Type_Name__c" : "Narration",
        "VIPForm__Related_List_Limit__c" : 50,
        "VIPForm__Related_List_Record_Title_Field__c" : "Name",
        "VIPForm__Required__c" : false,
        "VIPForm__Require_Attachment_on_related_list__c" : false,
        "VIPForm__Show_Print_Form_Button__c" : false,
        "VIPForm__Show_Rich_Text_Area_and_Long_Text__c" : false,
        "VIPForm__Show_Submit_Button__c" : false,
        "RecordType" : {
          "attributes" : {
            "type" : "RecordType",
            "url" : "/services/data/v49.0/sobjects/RecordType/01235000000HKGeAAO"
          },
          "Id" : "01235000000HKGeAAO",
          "DeveloperName" : "Narration"
        },
        "VIPForm__Category__r" : {
          "attributes" : {
            "type" : "VIPForm__VIP_Category__c",
            "url" : "/services/data/v49.0/sobjects/VIPForm__VIP_Category__c/a0835000008OiFCAA0"
          },
          "Id" : "a0835000008OiFCAA0",
          "Uuid__c" : "9c6b26a8-a02c-4b3b-9212-5513ff984b3e"
        }
      }, {
        "attributes" : {
          "type" : "VIPForm__VIP_Component__c",
          "url" : "/services/data/v49.0/sobjects/VIPForm__VIP_Component__c/a0935000001OBUuAAO"
        },
        "VIPForm__Category__c" : "a0835000008OiFCAA0",
        "Id" : "a0935000001OBUuAAO",
        "Uuid__c" : "91f0bd28-5c6f-49a9-afaf-749cf5e3890f",
        "Name" : "If Library (2)",
        "RecordTypeId" : "01235000000HKGcAAO",
        "VIPForm__Add_to_Summary_PDF__c" : true,
        "VIPForm__Allow_Edit_after_Submit__c" : false,
        "VIPForm__Conditional_Field__c" : "LibraryOrMuseum__c",
        "VIPForm__Conditional_Operator__c" : "contains",
        "VIPForm__Conditional_Value__c" : "Library",
        "VIPForm__Count__c" : "2",
        "VIPForm__Display_Help_Text__c" : true,
        "VIPForm__Do_Not_Allow_Delete_after_Submit__c" : false,
        "VIPForm__Fields_per_Row__c" : "2",
        "VIPForm__Field_Set_Overrides__c" : "[{\"isReadOnly\":false,\"isRequired\":true,\"inlineHelpText\":\"*If yes, you do NOT qualify for this Exemption and will not be able to submit this Exemption. \\r\\n\\r\\nIf you have not filed a BOE-267, Claim for Welfare Exemption for the property, please contact the Assessor’s Office immediately. The deadline for timely filing a Claim for Welfare Exemption is February 15 each year. Where there is a user charge, a Claim for Welfare Exemption may be allowed if both the organization and the use of the property meet all of the requirements for the exemption.\",\"fieldLabel\":\"\",\"fieldAPI\":\"UserChargeForLibrary__c\",\"sortOrder\":1}]",
        "VIPForm__Object_API_Name__c" : "Statement__c",
        "VIPForm__Order__c" : 30,
        "VIPForm__Read_Only__c" : false,
        "VIPForm__Record_Type_Name__c" : "Column LT 4",
        "VIPForm__Related_List_Limit__c" : 50,
        "VIPForm__Related_List_Record_Title_Field__c" : "Name",
        "VIPForm__Required__c" : false,
        "VIPForm__Require_Attachment_on_related_list__c" : false,
        "VIPForm__Show_Print_Form_Button__c" : false,
        "VIPForm__Show_Rich_Text_Area_and_Long_Text__c" : false,
        "VIPForm__Show_Submit_Button__c" : false,
        "VIPForm__Title_Displayed__c" : "If a library, is there a user charge for the use of books, periodicals, or facilities?*",
        "RecordType" : {
          "attributes" : {
            "type" : "RecordType",
            "url" : "/services/data/v49.0/sobjects/RecordType/01235000000HKGcAAO"
          },
          "Id" : "01235000000HKGcAAO",
          "DeveloperName" : "Column_LT_4"
        },
        "VIPForm__Category__r" : {
          "attributes" : {
            "type" : "VIPForm__VIP_Category__c",
            "url" : "/services/data/v49.0/sobjects/VIPForm__VIP_Category__c/a0835000008OiFCAA0"
          },
          "Id" : "a0835000008OiFCAA0",
          "Uuid__c" : "9c6b26a8-a02c-4b3b-9212-5513ff984b3e"
        }
      }, {
        "attributes" : {
          "type" : "VIPForm__VIP_Component__c",
          "url" : "/services/data/v49.0/sobjects/VIPForm__VIP_Component__c/a0935000001OBUvAAO"
        },
        "VIPForm__Category__c" : "a0835000008OiFCAA0",
        "Id" : "a0935000001OBUvAAO",
        "Uuid__c" : "df542cdd-9886-4bcb-8d4d-f62ea2315930",
        "Name" : "If Museum (3)",
        "RecordTypeId" : "01235000000HKGcAAO",
        "VIPForm__Add_to_Summary_PDF__c" : true,
        "VIPForm__Allow_Edit_after_Submit__c" : false,
        "VIPForm__Conditional_Field__c" : "LibraryOrMuseum__c",
        "VIPForm__Conditional_Operator__c" : "contains",
        "VIPForm__Conditional_Value__c" : "Museum",
        "VIPForm__Count__c" : "2",
        "VIPForm__Display_Help_Text__c" : true,
        "VIPForm__Do_Not_Allow_Delete_after_Submit__c" : false,
        "VIPForm__Fields_per_Row__c" : "2",
        "VIPForm__Field_Set_Overrides__c" : "[{\"isReadOnly\":false,\"isRequired\":true,\"inlineHelpText\":\"*If yes, you do NOT qualify for this Exemption and will not be able to submit this Exemption. \\r\\n\\r\\nIf you have not filed a BOE-267, Claim for Welfare Exemption for the property, please contact the Assessor’s Office immediately. The deadline for timely filing a Claim for Welfare Exemption is February 15 each year. Where there is a user charge, a Claim for Welfare Exemption may be allowed if both the organization and the use of the property meet all of the requirements for the exemption.\",\"fieldLabel\":\"\",\"fieldAPI\":\"ViewingChargeForMuseum__c\",\"sortOrder\":1}]",
        "VIPForm__Object_API_Name__c" : "Statement__c",
        "VIPForm__Order__c" : 35,
        "VIPForm__Read_Only__c" : false,
        "VIPForm__Record_Type_Name__c" : "Column LT 4",
        "VIPForm__Related_List_Limit__c" : 50,
        "VIPForm__Related_List_Record_Title_Field__c" : "Name",
        "VIPForm__Required__c" : false,
        "VIPForm__Require_Attachment_on_related_list__c" : false,
        "VIPForm__Show_Print_Form_Button__c" : false,
        "VIPForm__Show_Rich_Text_Area_and_Long_Text__c" : false,
        "VIPForm__Show_Submit_Button__c" : false,
        "VIPForm__Title_Displayed__c" : "If a museum, is there a charge for viewing the museum contents?*",
        "RecordType" : {
          "attributes" : {
            "type" : "RecordType",
            "url" : "/services/data/v49.0/sobjects/RecordType/01235000000HKGcAAO"
          },
          "Id" : "01235000000HKGcAAO",
          "DeveloperName" : "Column_LT_4"
        },
        "VIPForm__Category__r" : {
          "attributes" : {
            "type" : "VIPForm__VIP_Category__c",
            "url" : "/services/data/v49.0/sobjects/VIPForm__VIP_Category__c/a0835000008OiFCAA0"
          },
          "Id" : "a0835000008OiFCAA0",
          "Uuid__c" : "9c6b26a8-a02c-4b3b-9212-5513ff984b3e"
        }
      }, {
        "attributes" : {
          "type" : "VIPForm__VIP_Component__c",
          "url" : "/services/data/v49.0/sobjects/VIPForm__VIP_Component__c/a0935000001OBUwAAO"
        },
        "VIPForm__Category__c" : "a0835000008OiFCAA0",
        "Id" : "a0935000001OBUwAAO",
        "Uuid__c" : "258c55ed-f206-4191-8181-e1a31190436d",
        "Name" : "Library or Museum",
        "RecordTypeId" : "01235000000HKGcAAO",
        "VIPForm__Add_to_Summary_PDF__c" : true,
        "VIPForm__Allow_Edit_after_Submit__c" : false,
        "VIPForm__Count__c" : "1",
        "VIPForm__Display_Help_Text__c" : true,
        "VIPForm__Do_Not_Allow_Delete_after_Submit__c" : false,
        "VIPForm__Fields_per_Row__c" : "2",
        "VIPForm__Field_Set_Overrides__c" : "[{\"isReadOnly\":false,\"isRequired\":true,\"inlineHelpText\":\"Select the type(s) of qualifying exclusive use of this property. In order to chose multiple selections please hold down ctrl (windows) or command (mac) and click on the relevant options.\\r\\n\\r\\n\\r\\nIf filing for the first time, attach a copy of the lease or agreement in the next section.\",\"fieldLabel\":\"\",\"fieldAPI\":\"LibraryOrMuseum__c\",\"sortOrder\":1}]",
        "VIPForm__Object_API_Name__c" : "Statement__c",
        "VIPForm__Order__c" : 10,
        "VIPForm__Read_Only__c" : false,
        "VIPForm__Record_Type_Name__c" : "Column LT 4",
        "VIPForm__Related_List_Limit__c" : 50,
        "VIPForm__Related_List_Record_Title_Field__c" : "Name",
        "VIPForm__Required__c" : false,
        "VIPForm__Require_Attachment_on_related_list__c" : false,
        "VIPForm__Show_Print_Form_Button__c" : false,
        "VIPForm__Show_Rich_Text_Area_and_Long_Text__c" : false,
        "VIPForm__Show_Submit_Button__c" : false,
        "VIPForm__Title_Displayed__c" : "Select the type of qualifying exclusive use of the property.",
        "RecordType" : {
          "attributes" : {
            "type" : "RecordType",
            "url" : "/services/data/v49.0/sobjects/RecordType/01235000000HKGcAAO"
          },
          "Id" : "01235000000HKGcAAO",
          "DeveloperName" : "Column_LT_4"
        },
        "VIPForm__Category__r" : {
          "attributes" : {
            "type" : "VIPForm__VIP_Category__c",
            "url" : "/services/data/v49.0/sobjects/VIPForm__VIP_Category__c/a0835000008OiFCAA0"
          },
          "Id" : "a0835000008OiFCAA0",
          "Uuid__c" : "9c6b26a8-a02c-4b3b-9212-5513ff984b3e"
        }
      }, {
        "attributes" : {
          "type" : "VIPForm__VIP_Component__c",
          "url" : "/services/data/v49.0/sobjects/VIPForm__VIP_Component__c/a0935000001OBUxAAO"
        },
        "VIPForm__Category__c" : "a0835000008OiFCAA0",
        "Id" : "a0935000001OBUxAAO",
        "Uuid__c" : "f4d35729-0c39-4d4d-aeee-2d14d7ad75c4",
        "Name" : "Library/Museum Exemption (4)",
        "RecordTypeId" : "01235000000HKGcAAO",
        "VIPForm__Add_to_Summary_PDF__c" : true,
        "VIPForm__Allow_Edit_after_Submit__c" : false,
        "VIPForm__Count__c" : "2",
        "VIPForm__Display_Help_Text__c" : true,
        "VIPForm__Do_Not_Allow_Delete_after_Submit__c" : false,
        "VIPForm__Fields_per_Row__c" : "2",
        "VIPForm__Field_Set_Overrides__c" : "[{\"isReadOnly\":false,\"isRequired\":true,\"inlineHelpText\":\"If yes, a copy of the institution’s most recent tax return filed with the Internal Revenue Service must accompany this claim. Property taxes as determined by establishing a ratio of the unrelated business taxable income to the bookstore’s gross income will be levied. Upload this attachment in the next section called Attachments.\",\"fieldLabel\":\"\",\"fieldAPI\":\"BookstoreUnrelatedBizTaxableIncome__c\",\"sortOrder\":1}]",
        "VIPForm__Object_API_Name__c" : "Statement__c",
        "VIPForm__Order__c" : 40,
        "VIPForm__Read_Only__c" : false,
        "VIPForm__Record_Type_Name__c" : "Column LT 4",
        "VIPForm__Related_List_Limit__c" : 50,
        "VIPForm__Related_List_Record_Title_Field__c" : "Name",
        "VIPForm__Required__c" : false,
        "VIPForm__Require_Attachment_on_related_list__c" : false,
        "VIPForm__Show_Print_Form_Button__c" : false,
        "VIPForm__Show_Rich_Text_Area_and_Long_Text__c" : false,
        "VIPForm__Show_Submit_Button__c" : false,
        "VIPForm__Title_Displayed__c" : "Is the property, or a portion thereof, for which the exemption is claimed a bookstore that generates unrelated business taxable income as defined in section 512 of the Internal Revenue Code?",
        "RecordType" : {
          "attributes" : {
            "type" : "RecordType",
            "url" : "/services/data/v49.0/sobjects/RecordType/01235000000HKGcAAO"
          },
          "Id" : "01235000000HKGcAAO",
          "DeveloperName" : "Column_LT_4"
        },
        "VIPForm__Category__r" : {
          "attributes" : {
            "type" : "VIPForm__VIP_Category__c",
            "url" : "/services/data/v49.0/sobjects/VIPForm__VIP_Category__c/a0835000008OiFCAA0"
          },
          "Id" : "a0835000008OiFCAA0",
          "Uuid__c" : "9c6b26a8-a02c-4b3b-9212-5513ff984b3e"
        }
      }, {
        "attributes" : {
          "type" : "VIPForm__VIP_Component__c",
          "url" : "/services/data/v49.0/sobjects/VIPForm__VIP_Component__c/a0935000001OBUyAAO"
        },
        "VIPForm__Category__c" : "a0835000008OiFCAA0",
        "Id" : "a0935000001OBUyAAO",
        "Uuid__c" : "e2ec0b0b-d651-4050-9717-53763fb33aa1",
        "Name" : "Library/Museum Exemption (5 - If Yes)",
        "RecordTypeId" : "01235000000HKGcAAO",
        "VIPForm__Add_to_Summary_PDF__c" : true,
        "VIPForm__Allow_Edit_after_Submit__c" : false,
        "VIPForm__Conditional_Field__c" : "OtherBusiness__c",
        "VIPForm__Conditional_Operator__c" : "=",
        "VIPForm__Conditional_Value__c" : "Yes",
        "VIPForm__Count__c" : "1",
        "VIPForm__Display_Help_Text__c" : false,
        "VIPForm__Do_Not_Allow_Delete_after_Submit__c" : false,
        "VIPForm__Fields_per_Row__c" : "2",
        "VIPForm__Field_Set_Overrides__c" : "[{\"isReadOnly\":false,\"isRequired\":true,\"inlineHelpText\":\"\",\"fieldLabel\":\"If Yes, please explain:\",\"fieldAPI\":\"ExplainOtherBusiness__c\",\"sortOrder\":1}]",
        "VIPForm__Object_API_Name__c" : "Statement__c",
        "VIPForm__Order__c" : 55,
        "VIPForm__Read_Only__c" : false,
        "VIPForm__Record_Type_Name__c" : "Column LT 4",
        "VIPForm__Related_List_Limit__c" : 50,
        "VIPForm__Related_List_Record_Title_Field__c" : "Name",
        "VIPForm__Required__c" : false,
        "VIPForm__Require_Attachment_on_related_list__c" : false,
        "VIPForm__Show_Print_Form_Button__c" : false,
        "VIPForm__Show_Rich_Text_Area_and_Long_Text__c" : false,
        "VIPForm__Show_Submit_Button__c" : false,
        "RecordType" : {
          "attributes" : {
            "type" : "RecordType",
            "url" : "/services/data/v49.0/sobjects/RecordType/01235000000HKGcAAO"
          },
          "Id" : "01235000000HKGcAAO",
          "DeveloperName" : "Column_LT_4"
        },
        "VIPForm__Category__r" : {
          "attributes" : {
            "type" : "VIPForm__VIP_Category__c",
            "url" : "/services/data/v49.0/sobjects/VIPForm__VIP_Category__c/a0835000008OiFCAA0"
          },
          "Id" : "a0835000008OiFCAA0",
          "Uuid__c" : "9c6b26a8-a02c-4b3b-9212-5513ff984b3e"
        }
      }, {
        "attributes" : {
          "type" : "VIPForm__VIP_Component__c",
          "url" : "/services/data/v49.0/sobjects/VIPForm__VIP_Component__c/a0935000001OBUzAAO"
        },
        "VIPForm__Category__c" : "a0835000008OiFCAA0",
        "Id" : "a0935000001OBUzAAO",
        "Uuid__c" : "ec730804-326b-4c9c-8d0d-cadc633e7672",
        "Name" : "Library/Museum Exemption (5)",
        "RecordTypeId" : "01235000000HKGcAAO",
        "VIPForm__Add_to_Summary_PDF__c" : true,
        "VIPForm__Allow_Edit_after_Submit__c" : false,
        "VIPForm__Count__c" : "2",
        "VIPForm__Display_Help_Text__c" : false,
        "VIPForm__Do_Not_Allow_Delete_after_Submit__c" : false,
        "VIPForm__Fields_per_Row__c" : "2",
        "VIPForm__Field_Set_Overrides__c" : "[{\"isReadOnly\":false,\"isRequired\":true,\"inlineHelpText\":\"\",\"fieldLabel\":\"\",\"fieldAPI\":\"OtherBusiness__c\",\"sortOrder\":1}]",
        "VIPForm__Object_API_Name__c" : "Statement__c",
        "VIPForm__Order__c" : 50,
        "VIPForm__Read_Only__c" : false,
        "VIPForm__Record_Type_Name__c" : "Column LT 4",
        "VIPForm__Related_List_Limit__c" : 50,
        "VIPForm__Related_List_Record_Title_Field__c" : "Name",
        "VIPForm__Required__c" : false,
        "VIPForm__Require_Attachment_on_related_list__c" : false,
        "VIPForm__Show_Print_Form_Button__c" : false,
        "VIPForm__Show_Rich_Text_Area_and_Long_Text__c" : false,
        "VIPForm__Show_Submit_Button__c" : false,
        "VIPForm__Title_Displayed__c" : "Is any of the owned property used for sales or business purposes other than a bookstore?",
        "RecordType" : {
          "attributes" : {
            "type" : "RecordType",
            "url" : "/services/data/v49.0/sobjects/RecordType/01235000000HKGcAAO"
          },
          "Id" : "01235000000HKGcAAO",
          "DeveloperName" : "Column_LT_4"
        },
        "VIPForm__Category__r" : {
          "attributes" : {
            "type" : "VIPForm__VIP_Category__c",
            "url" : "/services/data/v49.0/sobjects/VIPForm__VIP_Category__c/a0835000008OiFCAA0"
          },
          "Id" : "a0835000008OiFCAA0",
          "Uuid__c" : "9c6b26a8-a02c-4b3b-9212-5513ff984b3e"
        }
      }, {
        "attributes" : {
          "type" : "VIPForm__VIP_Component__c",
          "url" : "/services/data/v49.0/sobjects/VIPForm__VIP_Component__c/a0935000001OBV0AAO"
        },
        "VIPForm__Category__c" : "a0835000008OiFCAA0",
        "Id" : "a0935000001OBV0AAO",
        "Uuid__c" : "001206b5-cb67-41d1-9e1e-e48fb0d47a45",
        "Name" : "Library/Museum Exemption (6 - If Yes)",
        "RecordTypeId" : "01235000000HKGcAAO",
        "VIPForm__Add_to_Summary_PDF__c" : true,
        "VIPForm__Allow_Edit_after_Submit__c" : false,
        "VIPForm__Conditional_Field__c" : "LeasedEquipmentOnLocation__c",
        "VIPForm__Conditional_Operator__c" : "=",
        "VIPForm__Conditional_Value__c" : "Yes",
        "VIPForm__Count__c" : "1",
        "VIPForm__Display_Help_Text__c" : false,
        "VIPForm__Do_Not_Allow_Delete_after_Submit__c" : false,
        "VIPForm__Fields_per_Row__c" : "1",
        "VIPForm__Field_Set_Overrides__c" : "[{\"isReadOnly\":false,\"isRequired\":true,\"inlineHelpText\":\"\",\"fieldLabel\":\"Leased Equipment Description:\",\"fieldAPI\":\"LeasedEquipmentDetails__c\",\"sortOrder\":1}]",
        "VIPForm__Object_API_Name__c" : "Statement__c",
        "VIPForm__Order__c" : 65,
        "VIPForm__Read_Only__c" : false,
        "VIPForm__Record_Type_Name__c" : "Column LT 4",
        "VIPForm__Related_List_Limit__c" : 50,
        "VIPForm__Related_List_Record_Title_Field__c" : "Name",
        "VIPForm__Required__c" : false,
        "VIPForm__Require_Attachment_on_related_list__c" : false,
        "VIPForm__Show_Print_Form_Button__c" : false,
        "VIPForm__Show_Rich_Text_Area_and_Long_Text__c" : false,
        "VIPForm__Show_Submit_Button__c" : false,
        "RecordType" : {
          "attributes" : {
            "type" : "RecordType",
            "url" : "/services/data/v49.0/sobjects/RecordType/01235000000HKGcAAO"
          },
          "Id" : "01235000000HKGcAAO",
          "DeveloperName" : "Column_LT_4"
        },
        "VIPForm__Category__r" : {
          "attributes" : {
            "type" : "VIPForm__VIP_Category__c",
            "url" : "/services/data/v49.0/sobjects/VIPForm__VIP_Category__c/a0835000008OiFCAA0"
          },
          "Id" : "a0835000008OiFCAA0",
          "Uuid__c" : "9c6b26a8-a02c-4b3b-9212-5513ff984b3e"
        }
      }, {
        "attributes" : {
          "type" : "VIPForm__VIP_Component__c",
          "url" : "/services/data/v49.0/sobjects/VIPForm__VIP_Component__c/a0935000001OBV1AAO"
        },
        "VIPForm__Category__c" : "a0835000008OiFCAA0",
        "Id" : "a0935000001OBV1AAO",
        "Uuid__c" : "5b26a04c-d93c-40b0-be3e-e2c6893e59b3",
        "Name" : "Library/Museum Exemption (6)",
        "RecordTypeId" : "01235000000HKGcAAO",
        "VIPForm__Add_to_Summary_PDF__c" : true,
        "VIPForm__Allow_Edit_after_Submit__c" : false,
        "VIPForm__Count__c" : "2",
        "VIPForm__Display_Help_Text__c" : true,
        "VIPForm__Do_Not_Allow_Delete_after_Submit__c" : false,
        "VIPForm__Fields_per_Row__c" : "2",
        "VIPForm__Field_Set_Overrides__c" : "[{\"isReadOnly\":false,\"isRequired\":true,\"inlineHelpText\":\"If yes, list in the Leased Equipment Description (below) the name and address of the owner and the type, make, model, and serial number of the property.  Attach a separate sheet if necessary on the next page.\\r\\n\\r\\n\\\"Exclusive use\\\" is not required for this exemption, the lessee’s possession is sufficient evidence of use.\\r\\n\\r\\nThe benefit of a property tax exemption must inure to the lessee institution; the lessee may be entitled to claim a refund of taxes paid by the lessor. See section 202.2 of the Revenue and Taxation Code.\",\"fieldLabel\":\"\",\"fieldAPI\":\"LeasedEquipmentOnLocation__c\",\"sortOrder\":1}]",
        "VIPForm__Object_API_Name__c" : "Statement__c",
        "VIPForm__Order__c" : 60,
        "VIPForm__Read_Only__c" : false,
        "VIPForm__Record_Type_Name__c" : "Column LT 4",
        "VIPForm__Related_List_Limit__c" : 50,
        "VIPForm__Related_List_Record_Title_Field__c" : "Name",
        "VIPForm__Required__c" : false,
        "VIPForm__Require_Attachment_on_related_list__c" : false,
        "VIPForm__Show_Print_Form_Button__c" : false,
        "VIPForm__Show_Rich_Text_Area_and_Long_Text__c" : false,
        "VIPForm__Show_Submit_Button__c" : false,
        "VIPForm__Title_Displayed__c" : "Is any equipment or other property at this location being leased or rented from someone else?",
        "RecordType" : {
          "attributes" : {
            "type" : "RecordType",
            "url" : "/services/data/v49.0/sobjects/RecordType/01235000000HKGcAAO"
          },
          "Id" : "01235000000HKGcAAO",
          "DeveloperName" : "Column_LT_4"
        },
        "VIPForm__Category__r" : {
          "attributes" : {
            "type" : "VIPForm__VIP_Category__c",
            "url" : "/services/data/v49.0/sobjects/VIPForm__VIP_Category__c/a0835000008OiFCAA0"
          },
          "Id" : "a0835000008OiFCAA0",
          "Uuid__c" : "9c6b26a8-a02c-4b3b-9212-5513ff984b3e"
        }
      }, {
        "attributes" : {
          "type" : "VIPForm__VIP_Component__c",
          "url" : "/services/data/v49.0/sobjects/VIPForm__VIP_Component__c/a0935000001OBV2AAO"
        },
        "VIPForm__Category__c" : "a0835000008OiFCAA0",
        "Id" : "a0935000001OBV2AAO",
        "Uuid__c" : "0af96c3f-9581-4616-8282-2ba0cd6722de",
        "Name" : "Museum/Library Exemption (1 - If No)",
        "RecordTypeId" : "01235000000HKGcAAO",
        "VIPForm__Add_to_Summary_PDF__c" : true,
        "VIPForm__Allow_Edit_after_Submit__c" : false,
        "VIPForm__Conditional_Field__c" : "FreeAdmission__c",
        "VIPForm__Conditional_Operator__c" : "=",
        "VIPForm__Conditional_Value__c" : "No",
        "VIPForm__Count__c" : "1",
        "VIPForm__Display_Help_Text__c" : false,
        "VIPForm__Do_Not_Allow_Delete_after_Submit__c" : false,
        "VIPForm__Fields_per_Row__c" : "2",
        "VIPForm__Field_Set_Overrides__c" : "[{\"isReadOnly\":false,\"isRequired\":true,\"inlineHelpText\":\"\",\"fieldLabel\":\"If No, please explain:\",\"fieldAPI\":\"WhyNotFree__c\",\"sortOrder\":1}]",
        "VIPForm__Object_API_Name__c" : "Statement__c",
        "VIPForm__Order__c" : 25,
        "VIPForm__Read_Only__c" : false,
        "VIPForm__Record_Type_Name__c" : "Column LT 4",
        "VIPForm__Related_List_Limit__c" : 50,
        "VIPForm__Related_List_Record_Title_Field__c" : "Name",
        "VIPForm__Required__c" : false,
        "VIPForm__Require_Attachment_on_related_list__c" : false,
        "VIPForm__Show_Print_Form_Button__c" : false,
        "VIPForm__Show_Rich_Text_Area_and_Long_Text__c" : false,
        "VIPForm__Show_Submit_Button__c" : false,
        "RecordType" : {
          "attributes" : {
            "type" : "RecordType",
            "url" : "/services/data/v49.0/sobjects/RecordType/01235000000HKGcAAO"
          },
          "Id" : "01235000000HKGcAAO",
          "DeveloperName" : "Column_LT_4"
        },
        "VIPForm__Category__r" : {
          "attributes" : {
            "type" : "VIPForm__VIP_Category__c",
            "url" : "/services/data/v49.0/sobjects/VIPForm__VIP_Category__c/a0835000008OiFCAA0"
          },
          "Id" : "a0835000008OiFCAA0",
          "Uuid__c" : "9c6b26a8-a02c-4b3b-9212-5513ff984b3e"
        }
      }, {
        "attributes" : {
          "type" : "VIPForm__VIP_Component__c",
          "url" : "/services/data/v49.0/sobjects/VIPForm__VIP_Component__c/a0935000001OBV3AAO"
        },
        "VIPForm__Category__c" : "a0835000008OiFCAA0",
        "Id" : "a0935000001OBV3AAO",
        "Uuid__c" : "0035ec57-c00b-4f3f-8343-a242fe7f1970",
        "Name" : "Museum/Library Exemption (1)",
        "RecordTypeId" : "01235000000HKGcAAO",
        "VIPForm__Add_to_Summary_PDF__c" : true,
        "VIPForm__Allow_Edit_after_Submit__c" : false,
        "VIPForm__Count__c" : "2",
        "VIPForm__Display_Help_Text__c" : false,
        "VIPForm__Do_Not_Allow_Delete_after_Submit__c" : false,
        "VIPForm__Fields_per_Row__c" : "2",
        "VIPForm__Field_Set_Overrides__c" : "[{\"isReadOnly\":false,\"isRequired\":true,\"inlineHelpText\":\"\",\"fieldLabel\":\"\",\"fieldAPI\":\"FreeAdmission__c\",\"sortOrder\":1}]",
        "VIPForm__Object_API_Name__c" : "Statement__c",
        "VIPForm__Order__c" : 20,
        "VIPForm__Read_Only__c" : false,
        "VIPForm__Record_Type_Name__c" : "Column LT 4",
        "VIPForm__Related_List_Limit__c" : 50,
        "VIPForm__Related_List_Record_Title_Field__c" : "Name",
        "VIPForm__Required__c" : false,
        "VIPForm__Require_Attachment_on_related_list__c" : false,
        "VIPForm__Show_Print_Form_Button__c" : false,
        "VIPForm__Show_Rich_Text_Area_and_Long_Text__c" : false,
        "VIPForm__Show_Submit_Button__c" : false,
        "VIPForm__Title_Displayed__c" : "Is admittance to the library or museum free?",
        "RecordType" : {
          "attributes" : {
            "type" : "RecordType",
            "url" : "/services/data/v49.0/sobjects/RecordType/01235000000HKGcAAO"
          },
          "Id" : "01235000000HKGcAAO",
          "DeveloperName" : "Column_LT_4"
        },
        "VIPForm__Category__r" : {
          "attributes" : {
            "type" : "VIPForm__VIP_Category__c",
            "url" : "/services/data/v49.0/sobjects/VIPForm__VIP_Category__c/a0835000008OiFCAA0"
          },
          "Id" : "a0835000008OiFCAA0",
          "Uuid__c" : "9c6b26a8-a02c-4b3b-9212-5513ff984b3e"
        }
      } ]
    },
    "RecordType" : {
      "attributes" : {
        "type" : "RecordType",
        "url" : "/services/data/v49.0/sobjects/RecordType/01235000000HKGaAAO"
      },
      "Id" : "01235000000HKGaAAO",
      "DeveloperName" : "VIP_Form_Section"
    },
    "VIPForm__Template__r" : {
      "attributes" : {
        "type" : "VIPForm__VIP_Template__c",
        "url" : "/services/data/v49.0/sobjects/VIPForm__VIP_Template__c/a0H35000001nGD2EAM"
      },
      "Id" : "a0H35000001nGD2EAM",
      "Uuid__c" : "bc6fedfc-e536-4eae-9252-61342d5a4482"
    }
  }, {
    "attributes" : {
      "type" : "VIPForm__VIP_Category__c",
      "url" : "/services/data/v49.0/sobjects/VIPForm__VIP_Category__c/a0835000008OiFDAA0"
    },
    "Uuid__c" : "978d5e90-2ffe-42f2-9e5e-5246ca4af8f5",
    "Name" : "Filing Info (Free Public Library or Museum Exemption)",
    "RecordTypeId" : "01235000000HKGaAAO",
    "VIPForm__Parent_VIP_Form_Section__c" : "a0835000008OiF4AAK",
    "VIPForm__Template__c" : "a0H35000001nGD2EAM",
    "VIPForm__Active__c" : true,
    "VIPForm__Inactive__c" : false,
    "VIPForm__Name_Displayed__c" : "Filing Info",
    "VIPForm__Order__c" : 5,
    "Id" : "a0835000008OiFDAA0",
    "VIPForm__Components__r" : {
      "totalSize" : 3,
      "done" : true,
      "records" : [ {
        "attributes" : {
          "type" : "VIPForm__VIP_Component__c",
          "url" : "/services/data/v49.0/sobjects/VIPForm__VIP_Component__c/a0935000001OBV4AAO"
        },
        "VIPForm__Category__c" : "a0835000008OiFDAA0",
        "Id" : "a0935000001OBV4AAO",
        "Uuid__c" : "a4a163a2-1232-4111-b878-cd8b8e6d27bb",
        "Name" : "Claimant Info",
        "RecordTypeId" : "01235000000HKGcAAO",
        "VIPForm__Add_to_Summary_PDF__c" : true,
        "VIPForm__Allow_Edit_after_Submit__c" : false,
        "VIPForm__Count__c" : "2",
        "VIPForm__Display_Help_Text__c" : false,
        "VIPForm__Do_Not_Allow_Delete_after_Submit__c" : false,
        "VIPForm__Fields_per_Row__c" : "2",
        "VIPForm__Field_Set_Overrides__c" : "[{\"isReadOnly\":false,\"isRequired\":true,\"inlineHelpText\":\"\",\"fieldLabel\":\"Claimant First Name\",\"fieldAPI\":\"ClaimantNameFirst__c\",\"sortOrder\":1},{\"isReadOnly\":false,\"isRequired\":false,\"inlineHelpText\":\"\",\"fieldLabel\":\"Claimant Middle Name\",\"fieldAPI\":\"ClaimantNameMiddle__c\",\"sortOrder\":2},{\"isReadOnly\":false,\"isRequired\":true,\"inlineHelpText\":\"\",\"fieldLabel\":\"Claimant Last Name\",\"fieldAPI\":\"ClaimantNameLast__c\",\"sortOrder\":3},{\"isReadOnly\":false,\"isRequired\":true,\"inlineHelpText\":\"\",\"fieldLabel\":\"Claimant Title\",\"fieldAPI\":\"ClaimantTitle__c\",\"sortOrder\":4},{\"isReadOnly\":false,\"isRequired\":true,\"inlineHelpText\":\"\",\"fieldLabel\":\"Organization Name\",\"fieldAPI\":\"OrganizationName__c\",\"sortOrder\":5},{\"isReadOnly\":false,\"isRequired\":false,\"inlineHelpText\":\"\",\"fieldLabel\":\"Name And Address Of Owner of Land and Buildings\",\"fieldAPI\":\"NameAndAddrOfOwnerOfLandAndBldgs__c\",\"sortOrder\":6},{\"isReadOnly\":false,\"isRequired\":false,\"inlineHelpText\":\"\",\"fieldLabel\":\"BPP Account Number\",\"fieldAPI\":\"BPPAccountNumber__c\",\"sortOrder\":7},{\"isReadOnly\":false,\"isRequired\":false,\"inlineHelpText\":\"\",\"fieldLabel\":\"PI Account Number\",\"fieldAPI\":\"PIAccountNumber__c\",\"sortOrder\":8},{\"isReadOnly\":false,\"isRequired\":false,\"inlineHelpText\":\"\",\"fieldLabel\":\"Lease Termination Date\",\"fieldAPI\":\"LeaseTerminationDate__c\",\"sortOrder\":9},{\"isReadOnly\":false,\"isRequired\":false,\"inlineHelpText\":\"\",\"fieldLabel\":\"Days of the Week Open to the Public and Hours of Operation\",\"fieldAPI\":\"DaysHoursOpentoPublic__c\",\"sortOrder\":10},{\"isReadOnly\":false,\"isRequired\":false,\"inlineHelpText\":\"\",\"fieldLabel\":\"Website Address (if any)\",\"fieldAPI\":\"WebsiteAddress__c\",\"sortOrder\":11}]",
        "VIPForm__Object_API_Name__c" : "Statement__c",
        "VIPForm__Order__c" : 30,
        "VIPForm__Read_Only__c" : false,
        "VIPForm__Record_Type_Name__c" : "Column LT 4",
        "VIPForm__Related_List_Limit__c" : 50,
        "VIPForm__Related_List_Record_Title_Field__c" : "Name",
        "VIPForm__Required__c" : false,
        "VIPForm__Require_Attachment_on_related_list__c" : false,
        "VIPForm__Show_Print_Form_Button__c" : false,
        "VIPForm__Show_Rich_Text_Area_and_Long_Text__c" : false,
        "VIPForm__Show_Submit_Button__c" : false,
        "VIPForm__Title_Displayed__c" : "Filing Info",
        "RecordType" : {
          "attributes" : {
            "type" : "RecordType",
            "url" : "/services/data/v49.0/sobjects/RecordType/01235000000HKGcAAO"
          },
          "Id" : "01235000000HKGcAAO",
          "DeveloperName" : "Column_LT_4"
        },
        "VIPForm__Category__r" : {
          "attributes" : {
            "type" : "VIPForm__VIP_Category__c",
            "url" : "/services/data/v49.0/sobjects/VIPForm__VIP_Category__c/a0835000008OiFDAA0"
          },
          "Id" : "a0835000008OiFDAA0",
          "Uuid__c" : "978d5e90-2ffe-42f2-9e5e-5246ca4af8f5"
        }
      }, {
        "attributes" : {
          "type" : "VIPForm__VIP_Component__c",
          "url" : "/services/data/v49.0/sobjects/VIPForm__VIP_Component__c/a0935000001OBV5AAO"
        },
        "VIPForm__Category__c" : "a0835000008OiFDAA0",
        "Id" : "a0935000001OBV5AAO",
        "Uuid__c" : "23bf227c-ba80-4b6b-a020-20c7152d59d4",
        "Name" : "File Years",
        "RecordTypeId" : "01235000000HKGcAAO",
        "VIPForm__Add_to_Summary_PDF__c" : true,
        "VIPForm__Allow_Edit_after_Submit__c" : false,
        "VIPForm__Count__c" : "2",
        "VIPForm__Display_Help_Text__c" : false,
        "VIPForm__Do_Not_Allow_Delete_after_Submit__c" : false,
        "VIPForm__Fields_per_Row__c" : "2",
        "VIPForm__Field_Set_Overrides__c" : "[{\"isReadOnly\":false,\"isRequired\":true,\"inlineHelpText\":\"\",\"fieldLabel\":\"Claim Fiscal Year From\",\"fieldAPI\":\"ClaimFiscalYearFrom__c\",\"sortOrder\":1},{\"isReadOnly\":false,\"isRequired\":true,\"inlineHelpText\":\"\",\"fieldLabel\":\"Claim Fiscal Year To\",\"fieldAPI\":\"ClaimFiscalYearTo__c\",\"sortOrder\":2}]",
        "VIPForm__Object_API_Name__c" : "Statement__c",
        "VIPForm__Order__c" : 20,
        "VIPForm__Read_Only__c" : false,
        "VIPForm__Record_Type_Name__c" : "Column LT 4",
        "VIPForm__Related_List_Limit__c" : 50,
        "VIPForm__Related_List_Record_Title_Field__c" : "Name",
        "VIPForm__Required__c" : false,
        "VIPForm__Require_Attachment_on_related_list__c" : false,
        "VIPForm__Show_Print_Form_Button__c" : false,
        "VIPForm__Show_Rich_Text_Area_and_Long_Text__c" : false,
        "VIPForm__Show_Submit_Button__c" : false,
        "VIPForm__Text_Box__c" : "<p>A claimant must complete and file this form with the Assessor by February 15.</p>",
        "RecordType" : {
          "attributes" : {
            "type" : "RecordType",
            "url" : "/services/data/v49.0/sobjects/RecordType/01235000000HKGcAAO"
          },
          "Id" : "01235000000HKGcAAO",
          "DeveloperName" : "Column_LT_4"
        },
        "VIPForm__Category__r" : {
          "attributes" : {
            "type" : "VIPForm__VIP_Category__c",
            "url" : "/services/data/v49.0/sobjects/VIPForm__VIP_Category__c/a0835000008OiFDAA0"
          },
          "Id" : "a0835000008OiFDAA0",
          "Uuid__c" : "978d5e90-2ffe-42f2-9e5e-5246ca4af8f5"
        }
      }, {
        "attributes" : {
          "type" : "VIPForm__VIP_Component__c",
          "url" : "/services/data/v49.0/sobjects/VIPForm__VIP_Component__c/a0935000001OBV6AAO"
        },
        "VIPForm__Category__c" : "a0835000008OiFDAA0",
        "Id" : "a0935000001OBV6AAO",
        "Uuid__c" : "484f1285-ca97-4787-a363-2c96bb19fb8a",
        "Name" : "Filed For Fiscal Year Info",
        "RecordTypeId" : "01235000000HKGeAAO",
        "VIPForm__Add_to_Summary_PDF__c" : true,
        "VIPForm__Allow_Edit_after_Submit__c" : false,
        "VIPForm__Display_Help_Text__c" : false,
        "VIPForm__Do_Not_Allow_Delete_after_Submit__c" : false,
        "VIPForm__Narration_Text__c" : "<p style=\"text-align: center;\"><b style=\"font-size: 18px;\">BOE-268-B: FREE PUBLIC LIBRARY OR FREE MUSEUM CLAIM</b></p><p><br></p><p>(Example: a person filing a timely claim in January 2011 would enter &quot;2011&quot; in Claim Fiscal Year From and &quot;2012&quot; in Claim Fiscal Year To).</p>",
        "VIPForm__Object_API_Name__c" : "Statement__c",
        "VIPForm__Order__c" : 10,
        "VIPForm__Read_Only__c" : false,
        "VIPForm__Record_Type_Name__c" : "Narration",
        "VIPForm__Related_List_Limit__c" : 50,
        "VIPForm__Related_List_Record_Title_Field__c" : "Name",
        "VIPForm__Required__c" : false,
        "VIPForm__Require_Attachment_on_related_list__c" : false,
        "VIPForm__Show_Print_Form_Button__c" : false,
        "VIPForm__Show_Rich_Text_Area_and_Long_Text__c" : false,
        "VIPForm__Show_Submit_Button__c" : false,
        "VIPForm__Title_Displayed__c" : "This claim is filed for fiscal year 20__ - 20__.",
        "RecordType" : {
          "attributes" : {
            "type" : "RecordType",
            "url" : "/services/data/v49.0/sobjects/RecordType/01235000000HKGeAAO"
          },
          "Id" : "01235000000HKGeAAO",
          "DeveloperName" : "Narration"
        },
        "VIPForm__Category__r" : {
          "attributes" : {
            "type" : "VIPForm__VIP_Category__c",
            "url" : "/services/data/v49.0/sobjects/VIPForm__VIP_Category__c/a0835000008OiFDAA0"
          },
          "Id" : "a0835000008OiFDAA0",
          "Uuid__c" : "978d5e90-2ffe-42f2-9e5e-5246ca4af8f5"
        }
      } ]
    },
    "RecordType" : {
      "attributes" : {
        "type" : "RecordType",
        "url" : "/services/data/v49.0/sobjects/RecordType/01235000000HKGaAAO"
      },
      "Id" : "01235000000HKGaAAO",
      "DeveloperName" : "VIP_Form_Section"
    },
    "VIPForm__Parent_VIP_Form_Section__r" : {
      "attributes" : {
        "type" : "VIPForm__VIP_Category__c",
        "url" : "/services/data/v49.0/sobjects/VIPForm__VIP_Category__c/a0835000008OiF4AAK"
      },
      "Id" : "a0835000008OiF4AAK",
      "Uuid__c" : "6ead32f0-2af1-4f2f-b8f8-e6c866e9e499"
    },
    "VIPForm__Template__r" : {
      "attributes" : {
        "type" : "VIPForm__VIP_Template__c",
        "url" : "/services/data/v49.0/sobjects/VIPForm__VIP_Template__c/a0H35000001nGD2EAM"
      },
      "Id" : "a0H35000001nGD2EAM",
      "Uuid__c" : "bc6fedfc-e536-4eae-9252-61342d5a4482"
    }
  }, {
    "attributes" : {
      "type" : "VIPForm__VIP_Category__c",
      "url" : "/services/data/v49.0/sobjects/VIPForm__VIP_Category__c/a0835000008OiFEAA0"
    },
    "Uuid__c" : "6e0958f1-ea0b-4c9c-a929-84a69e5ca8b6",
    "Name" : "Mailing & Location Addresses (Free Public Library or Museum Exemption)",
    "RecordTypeId" : "01235000000HKGaAAO",
    "VIPForm__Template__c" : "a0H35000001nGD2EAM",
    "VIPForm__Active__c" : true,
    "VIPForm__Inactive__c" : false,
    "VIPForm__Name_Displayed__c" : "Addresses",
    "VIPForm__Order__c" : 10,
    "Id" : "a0835000008OiFEAA0",
    "VIPForm__Components__r" : {
      "totalSize" : 3,
      "done" : true,
      "records" : [ {
        "attributes" : {
          "type" : "VIPForm__VIP_Component__c",
          "url" : "/services/data/v49.0/sobjects/VIPForm__VIP_Component__c/a0935000001OBV7AAO"
        },
        "VIPForm__Category__c" : "a0835000008OiFEAA0",
        "Id" : "a0935000001OBV7AAO",
        "Uuid__c" : "378b570c-ca21-4f9f-bdbd-1cd45e6b26a6",
        "Name" : "Address of Property",
        "RecordTypeId" : "01235000000HKGcAAO",
        "VIPForm__Add_to_Summary_PDF__c" : true,
        "VIPForm__Allow_Edit_after_Submit__c" : false,
        "VIPForm__Count__c" : "2",
        "VIPForm__Display_Help_Text__c" : true,
        "VIPForm__Do_Not_Allow_Delete_after_Submit__c" : false,
        "VIPForm__Fields_per_Row__c" : "2",
        "VIPForm__Field_Set_Overrides__c" : "[{\"isReadOnly\":false,\"isRequired\":false,\"inlineHelpText\":\"\",\"fieldLabel\":\"Care Of\",\"fieldAPI\":\"LocationCareOf__c\",\"sortOrder\":1},{\"isReadOnly\":false,\"isRequired\":false,\"inlineHelpText\":\"\",\"fieldLabel\":\"Street Number\",\"fieldAPI\":\"LocationStreetNumber__c\",\"sortOrder\":2},{\"isReadOnly\":false,\"isRequired\":false,\"inlineHelpText\":\"\",\"fieldLabel\":\"Street Fraction\",\"fieldAPI\":\"LocationStreetFraction__c\",\"sortOrder\":3},{\"isReadOnly\":false,\"isRequired\":false,\"inlineHelpText\":\"\",\"fieldLabel\":\"Street Direction\",\"fieldAPI\":\"LocationStreetPreDirection__c\",\"sortOrder\":4},{\"isReadOnly\":false,\"isRequired\":true,\"inlineHelpText\":\"\",\"fieldLabel\":\"Street Name\",\"fieldAPI\":\"LocationStreetName__c\",\"sortOrder\":5},{\"isReadOnly\":false,\"isRequired\":false,\"inlineHelpText\":\"\",\"fieldLabel\":\"Street Type\",\"fieldAPI\":\"LocationStreetType__c\",\"sortOrder\":6},{\"isReadOnly\":false,\"isRequired\":false,\"inlineHelpText\":\"\",\"fieldLabel\":\"Unit Type\",\"fieldAPI\":\"LocationUnitType__c\",\"sortOrder\":7},{\"isReadOnly\":false,\"isRequired\":false,\"inlineHelpText\":\"\",\"fieldLabel\":\"Unit Number\",\"fieldAPI\":\"LocationUnitNumber__c\",\"sortOrder\":8},{\"isReadOnly\":false,\"isRequired\":true,\"inlineHelpText\":\"\",\"fieldLabel\":\"City\",\"fieldAPI\":\"LocationCity__c\",\"sortOrder\":9},{\"isReadOnly\":false,\"isRequired\":true,\"inlineHelpText\":\"\",\"fieldLabel\":\"State\",\"fieldAPI\":\"LocationState__c\",\"sortOrder\":10},{\"isReadOnly\":false,\"isRequired\":true,\"inlineHelpText\":\"\",\"fieldLabel\":\"Zip Code\",\"fieldAPI\":\"LocationPostalCode__c\",\"sortOrder\":11},{\"isReadOnly\":false,\"isRequired\":false,\"inlineHelpText\":\"\",\"fieldLabel\":\"Zip Extension\",\"fieldAPI\":\"LocationPostalCodeExtension__c\",\"sortOrder\":12},{\"isReadOnly\":false,\"isRequired\":false,\"inlineHelpText\":\"APN\",\"fieldLabel\":\"Assessor's Parcel Number\",\"fieldAPI\":\"APN__c\",\"sortOrder\":13}]",
        "VIPForm__Object_API_Name__c" : "Statement__c",
        "VIPForm__Order__c" : 20,
        "VIPForm__Read_Only__c" : false,
        "VIPForm__Record_Type_Name__c" : "Column LT 4",
        "VIPForm__Related_List_Limit__c" : 50,
        "VIPForm__Related_List_Record_Title_Field__c" : "Name",
        "VIPForm__Required__c" : false,
        "VIPForm__Require_Attachment_on_related_list__c" : false,
        "VIPForm__Show_Print_Form_Button__c" : false,
        "VIPForm__Show_Rich_Text_Area_and_Long_Text__c" : false,
        "VIPForm__Show_Submit_Button__c" : false,
        "VIPForm__Title_Displayed__c" : "Address of Property",
        "RecordType" : {
          "attributes" : {
            "type" : "RecordType",
            "url" : "/services/data/v49.0/sobjects/RecordType/01235000000HKGcAAO"
          },
          "Id" : "01235000000HKGcAAO",
          "DeveloperName" : "Column_LT_4"
        },
        "VIPForm__Category__r" : {
          "attributes" : {
            "type" : "VIPForm__VIP_Category__c",
            "url" : "/services/data/v49.0/sobjects/VIPForm__VIP_Category__c/a0835000008OiFEAA0"
          },
          "Id" : "a0835000008OiFEAA0",
          "Uuid__c" : "6e0958f1-ea0b-4c9c-a929-84a69e5ca8b6"
        }
      }, {
        "attributes" : {
          "type" : "VIPForm__VIP_Component__c",
          "url" : "/services/data/v49.0/sobjects/VIPForm__VIP_Component__c/a0935000001REeyAAG"
        },
        "VIPForm__Category__c" : "a0835000008OiFEAA0",
        "Id" : "a0935000001REeyAAG",
        "Uuid__c" : "78dba122-dd9d-4313-a2a2-bd5386a9ab21",
        "Name" : "Form Banner",
        "RecordTypeId" : "01235000000HKGeAAO",
        "VIPForm__Add_to_Summary_PDF__c" : true,
        "VIPForm__Allow_Edit_after_Submit__c" : false,
        "VIPForm__Display_Help_Text__c" : false,
        "VIPForm__Do_Not_Allow_Delete_after_Submit__c" : false,
        "VIPForm__Narration_Text__c" : "<p style=\"text-align: center;\"><b style=\"font-size: 18px; color: rgb(62, 62, 60);\">BOE-268-B: FREE PUBLIC LIBRARY OR FREE MUSEUM CLAIM</b></p>",
        "VIPForm__Object_API_Name__c" : "Statement__c",
        "VIPForm__Order__c" : 9,
        "VIPForm__Read_Only__c" : false,
        "VIPForm__Record_Type_Name__c" : "Narration",
        "VIPForm__Related_List_Limit__c" : 50,
        "VIPForm__Related_List_Record_Title_Field__c" : "Name",
        "VIPForm__Required__c" : false,
        "VIPForm__Require_Attachment_on_related_list__c" : false,
        "VIPForm__Show_Print_Form_Button__c" : false,
        "VIPForm__Show_Rich_Text_Area_and_Long_Text__c" : false,
        "VIPForm__Show_Submit_Button__c" : false,
        "RecordType" : {
          "attributes" : {
            "type" : "RecordType",
            "url" : "/services/data/v49.0/sobjects/RecordType/01235000000HKGeAAO"
          },
          "Id" : "01235000000HKGeAAO",
          "DeveloperName" : "Narration"
        },
        "VIPForm__Category__r" : {
          "attributes" : {
            "type" : "VIPForm__VIP_Category__c",
            "url" : "/services/data/v49.0/sobjects/VIPForm__VIP_Category__c/a0835000008OiFEAA0"
          },
          "Id" : "a0835000008OiFEAA0",
          "Uuid__c" : "6e0958f1-ea0b-4c9c-a929-84a69e5ca8b6"
        }
      }, {
        "attributes" : {
          "type" : "VIPForm__VIP_Component__c",
          "url" : "/services/data/v49.0/sobjects/VIPForm__VIP_Component__c/a0935000001OBV8AAO"
        },
        "VIPForm__Category__c" : "a0835000008OiFEAA0",
        "Id" : "a0935000001OBV8AAO",
        "Uuid__c" : "c12bf648-3eb8-4bdb-a8a8-e1d796536f71",
        "Name" : "Mailing Address",
        "RecordTypeId" : "01235000000HKGcAAO",
        "VIPForm__Add_to_Summary_PDF__c" : true,
        "VIPForm__Allow_Edit_after_Submit__c" : false,
        "VIPForm__Count__c" : "2",
        "VIPForm__Display_Help_Text__c" : false,
        "VIPForm__Do_Not_Allow_Delete_after_Submit__c" : false,
        "VIPForm__Fields_per_Row__c" : "2",
        "VIPForm__Field_Set_Overrides__c" : "[{\"isReadOnly\":false,\"isRequired\":false,\"inlineHelpText\":\"\",\"fieldLabel\":\"Mailing Care Of\",\"fieldAPI\":\"MailingCareOf__c\",\"sortOrder\":1},{\"isReadOnly\":false,\"isRequired\":false,\"inlineHelpText\":\"\",\"fieldLabel\":\"Mailing Street Number\",\"fieldAPI\":\"MailingStreetNumber__c\",\"sortOrder\":2},{\"isReadOnly\":false,\"isRequired\":false,\"inlineHelpText\":\"\",\"fieldLabel\":\"Mailing Street Fraction\",\"fieldAPI\":\"MailingStreetFraction__c\",\"sortOrder\":3},{\"isReadOnly\":false,\"isRequired\":false,\"inlineHelpText\":\"\",\"fieldLabel\":\"Mailing Street Pre-Direction\",\"fieldAPI\":\"MailingStreetPreDirection__c\",\"sortOrder\":4},{\"isReadOnly\":false,\"isRequired\":true,\"inlineHelpText\":\"\",\"fieldLabel\":\"Mailing Street Name\",\"fieldAPI\":\"MailingStreetName__c\",\"sortOrder\":5},{\"isReadOnly\":false,\"isRequired\":false,\"inlineHelpText\":\"\",\"fieldLabel\":\"Mailing Street Type\",\"fieldAPI\":\"MailingStreetType__c\",\"sortOrder\":6},{\"isReadOnly\":false,\"isRequired\":false,\"inlineHelpText\":\"\",\"fieldLabel\":\"Mailing Unit Type\",\"fieldAPI\":\"MailingUnitType__c\",\"sortOrder\":7},{\"isReadOnly\":false,\"isRequired\":false,\"inlineHelpText\":\"\",\"fieldLabel\":\"Mailing Unit Number\",\"fieldAPI\":\"MailingUnitNumber__c\",\"sortOrder\":8},{\"isReadOnly\":false,\"isRequired\":true,\"inlineHelpText\":\"\",\"fieldLabel\":\"Mailing City\",\"fieldAPI\":\"MailingCity__c\",\"sortOrder\":9},{\"isReadOnly\":false,\"isRequired\":true,\"inlineHelpText\":\"\",\"fieldLabel\":\"Mailing State\",\"fieldAPI\":\"MailingState__c\",\"sortOrder\":10},{\"isReadOnly\":false,\"isRequired\":true,\"inlineHelpText\":\"\",\"fieldLabel\":\"Mailing Postal Code\",\"fieldAPI\":\"MailingPostalCode__c\",\"sortOrder\":11},{\"isReadOnly\":false,\"isRequired\":false,\"inlineHelpText\":\"\",\"fieldLabel\":\"Mailing Postal Code Extension\",\"fieldAPI\":\"MailingPostalCodeExtension__c\",\"sortOrder\":12},{\"isReadOnly\":false,\"isRequired\":true,\"inlineHelpText\":\"\",\"fieldLabel\":\"Mailing Country\",\"fieldAPI\":\"MailingCountry__c\",\"sortOrder\":13}]",
        "VIPForm__Object_API_Name__c" : "Statement__c",
        "VIPForm__Order__c" : 10,
        "VIPForm__Read_Only__c" : false,
        "VIPForm__Record_Type_Name__c" : "Column LT 4",
        "VIPForm__Related_List_Limit__c" : 50,
        "VIPForm__Related_List_Record_Title_Field__c" : "Name",
        "VIPForm__Required__c" : false,
        "VIPForm__Require_Attachment_on_related_list__c" : false,
        "VIPForm__Show_Print_Form_Button__c" : false,
        "VIPForm__Show_Rich_Text_Area_and_Long_Text__c" : false,
        "VIPForm__Show_Submit_Button__c" : false,
        "VIPForm__Title_Displayed__c" : "Mailing Address of Owner of Land and Buildings",
        "RecordType" : {
          "attributes" : {
            "type" : "RecordType",
            "url" : "/services/data/v49.0/sobjects/RecordType/01235000000HKGcAAO"
          },
          "Id" : "01235000000HKGcAAO",
          "DeveloperName" : "Column_LT_4"
        },
        "VIPForm__Category__r" : {
          "attributes" : {
            "type" : "VIPForm__VIP_Category__c",
            "url" : "/services/data/v49.0/sobjects/VIPForm__VIP_Category__c/a0835000008OiFEAA0"
          },
          "Id" : "a0835000008OiFEAA0",
          "Uuid__c" : "6e0958f1-ea0b-4c9c-a929-84a69e5ca8b6"
        }
      } ]
    },
    "RecordType" : {
      "attributes" : {
        "type" : "RecordType",
        "url" : "/services/data/v49.0/sobjects/RecordType/01235000000HKGaAAO"
      },
      "Id" : "01235000000HKGaAAO",
      "DeveloperName" : "VIP_Form_Section"
    },
    "VIPForm__Template__r" : {
      "attributes" : {
        "type" : "VIPForm__VIP_Template__c",
        "url" : "/services/data/v49.0/sobjects/VIPForm__VIP_Template__c/a0H35000001nGD2EAM"
      },
      "Id" : "a0H35000001nGD2EAM",
      "Uuid__c" : "bc6fedfc-e536-4eae-9252-61342d5a4482"
    }
  }, {
    "attributes" : {
      "type" : "VIPForm__VIP_Category__c",
      "url" : "/services/data/v49.0/sobjects/VIPForm__VIP_Category__c/a0835000008OiFFAA0"
    },
    "Uuid__c" : "5c0ef009-be86-4beb-a3e3-a0df5ef0abec",
    "Name" : "Owned Property",
    "RecordTypeId" : "01235000000HKGaAAO",
    "VIPForm__Template__c" : "a0H35000001nGD2EAM",
    "VIPForm__Active__c" : true,
    "VIPForm__Inactive__c" : false,
    "VIPForm__Name_Displayed__c" : "Owned Property",
    "VIPForm__Order__c" : 30,
    "Id" : "a0835000008OiFFAA0",
    "VIPForm__Components__r" : {
      "totalSize" : 5,
      "done" : true,
      "records" : [ {
        "attributes" : {
          "type" : "VIPForm__VIP_Component__c",
          "url" : "/services/data/v49.0/sobjects/VIPForm__VIP_Component__c/a0935000001OBV9AAO"
        },
        "VIPForm__Category__c" : "a0835000008OiFFAA0",
        "Id" : "a0935000001OBV9AAO",
        "Uuid__c" : "8db2facd-3582-40d0-bd3d-5dc44252d22a",
        "Name" : "Building/Improvements & Usage",
        "RecordTypeId" : "01235000000HKGcAAO",
        "VIPForm__Add_to_Summary_PDF__c" : true,
        "VIPForm__Allow_Edit_after_Submit__c" : false,
        "VIPForm__Count__c" : "1",
        "VIPForm__Display_Help_Text__c" : true,
        "VIPForm__Do_Not_Allow_Delete_after_Submit__c" : false,
        "VIPForm__Fields_per_Row__c" : "1",
        "VIPForm__Field_Set_Overrides__c" : "[{\"isReadOnly\":false,\"isRequired\":false,\"inlineHelpText\":\"Include all relevant buildings\",\"fieldLabel\":\"Building Number or Name, Number of Floors, Number of Rooms, Type of Construction\",\"fieldAPI\":\"BuildingNumberorNameFloorNumbers__c\",\"sortOrder\":1},{\"isReadOnly\":false,\"isRequired\":false,\"inlineHelpText\":\"\",\"fieldLabel\":\"Primary Use:\",\"fieldAPI\":\"BldgImprvPrimaryUse__c\",\"sortOrder\":2},{\"isReadOnly\":false,\"isRequired\":false,\"inlineHelpText\":\"\",\"fieldLabel\":\"Incidental Use:\",\"fieldAPI\":\"BldgImprvIncidentalUse__c\",\"sortOrder\":3}]",
        "VIPForm__Object_API_Name__c" : "Statement__c",
        "VIPForm__Order__c" : 20,
        "VIPForm__Read_Only__c" : false,
        "VIPForm__Record_Type_Name__c" : "Column LT 4",
        "VIPForm__Related_List_Limit__c" : 50,
        "VIPForm__Related_List_Record_Title_Field__c" : "Name",
        "VIPForm__Required__c" : false,
        "VIPForm__Require_Attachment_on_related_list__c" : false,
        "VIPForm__Show_Print_Form_Button__c" : false,
        "VIPForm__Show_Rich_Text_Area_and_Long_Text__c" : false,
        "VIPForm__Show_Submit_Button__c" : false,
        "VIPForm__Text_Box__c" : "<p>List only property that is owned.</p>",
        "VIPForm__Title_Displayed__c" : "Buildings and Improvements & Usage",
        "RecordType" : {
          "attributes" : {
            "type" : "RecordType",
            "url" : "/services/data/v49.0/sobjects/RecordType/01235000000HKGcAAO"
          },
          "Id" : "01235000000HKGcAAO",
          "DeveloperName" : "Column_LT_4"
        },
        "VIPForm__Category__r" : {
          "attributes" : {
            "type" : "VIPForm__VIP_Category__c",
            "url" : "/services/data/v49.0/sobjects/VIPForm__VIP_Category__c/a0835000008OiFFAA0"
          },
          "Id" : "a0835000008OiFFAA0",
          "Uuid__c" : "5c0ef009-be86-4beb-a3e3-a0df5ef0abec"
        }
      }, {
        "attributes" : {
          "type" : "VIPForm__VIP_Component__c",
          "url" : "/services/data/v49.0/sobjects/VIPForm__VIP_Component__c/a0935000001REezAAG"
        },
        "VIPForm__Category__c" : "a0835000008OiFFAA0",
        "Id" : "a0935000001REezAAG",
        "Uuid__c" : "9742d07e-444c-4505-a060-e5651d875ba7",
        "Name" : "Form Banner",
        "RecordTypeId" : "01235000000HKGeAAO",
        "VIPForm__Add_to_Summary_PDF__c" : true,
        "VIPForm__Allow_Edit_after_Submit__c" : false,
        "VIPForm__Display_Help_Text__c" : false,
        "VIPForm__Do_Not_Allow_Delete_after_Submit__c" : false,
        "VIPForm__Narration_Text__c" : "<p style=\"text-align: center;\"><b style=\"font-size: 18px; color: rgb(62, 62, 60);\">BOE-268-B: FREE PUBLIC LIBRARY OR FREE MUSEUM CLAIM</b></p>",
        "VIPForm__Object_API_Name__c" : "Statement__c",
        "VIPForm__Order__c" : 9,
        "VIPForm__Read_Only__c" : false,
        "VIPForm__Record_Type_Name__c" : "Narration",
        "VIPForm__Related_List_Limit__c" : 50,
        "VIPForm__Related_List_Record_Title_Field__c" : "Name",
        "VIPForm__Required__c" : false,
        "VIPForm__Require_Attachment_on_related_list__c" : false,
        "VIPForm__Show_Print_Form_Button__c" : false,
        "VIPForm__Show_Rich_Text_Area_and_Long_Text__c" : false,
        "VIPForm__Show_Submit_Button__c" : false,
        "RecordType" : {
          "attributes" : {
            "type" : "RecordType",
            "url" : "/services/data/v49.0/sobjects/RecordType/01235000000HKGeAAO"
          },
          "Id" : "01235000000HKGeAAO",
          "DeveloperName" : "Narration"
        },
        "VIPForm__Category__r" : {
          "attributes" : {
            "type" : "VIPForm__VIP_Category__c",
            "url" : "/services/data/v49.0/sobjects/VIPForm__VIP_Category__c/a0835000008OiFFAA0"
          },
          "Id" : "a0835000008OiFFAA0",
          "Uuid__c" : "5c0ef009-be86-4beb-a3e3-a0df5ef0abec"
        }
      }, {
        "attributes" : {
          "type" : "VIPForm__VIP_Component__c",
          "url" : "/services/data/v49.0/sobjects/VIPForm__VIP_Component__c/a0935000001OBVAAA4"
        },
        "VIPForm__Category__c" : "a0835000008OiFFAA0",
        "Id" : "a0935000001OBVAAA4",
        "Uuid__c" : "a293628f-55c7-49a9-a666-06fc5620b1bf",
        "Name" : "Land Property Description/Use",
        "RecordTypeId" : "01235000000HKGcAAO",
        "VIPForm__Add_to_Summary_PDF__c" : true,
        "VIPForm__Allow_Edit_after_Submit__c" : false,
        "VIPForm__Count__c" : "1",
        "VIPForm__Display_Help_Text__c" : false,
        "VIPForm__Do_Not_Allow_Delete_after_Submit__c" : false,
        "VIPForm__Fields_per_Row__c" : "1",
        "VIPForm__Field_Set_Overrides__c" : "[{\"isReadOnly\":false,\"isRequired\":false,\"inlineHelpText\":\"\",\"fieldLabel\":\"Land: (Legal description or map book, page and parcel number from most recent tax statement)\",\"fieldAPI\":\"LandLegalDescriptionAndAPN__c\",\"sortOrder\":1},{\"isReadOnly\":false,\"isRequired\":false,\"inlineHelpText\":\"\",\"fieldLabel\":\"Land Area\",\"fieldAPI\":\"LandArea__c\",\"sortOrder\":2},{\"isReadOnly\":false,\"isRequired\":false,\"inlineHelpText\":\"\",\"fieldLabel\":\"Land Primary Use\",\"fieldAPI\":\"LandPrimaryUse__c\",\"sortOrder\":3},{\"isReadOnly\":false,\"isRequired\":false,\"inlineHelpText\":\"\",\"fieldLabel\":\"Land Incidental Use\",\"fieldAPI\":\"LandIncidentalUse__c\",\"sortOrder\":4}]",
        "VIPForm__Object_API_Name__c" : "Statement__c",
        "VIPForm__Order__c" : 10,
        "VIPForm__Read_Only__c" : false,
        "VIPForm__Record_Type_Name__c" : "Column LT 4",
        "VIPForm__Related_List_Limit__c" : 50,
        "VIPForm__Related_List_Record_Title_Field__c" : "Name",
        "VIPForm__Required__c" : false,
        "VIPForm__Require_Attachment_on_related_list__c" : false,
        "VIPForm__Show_Print_Form_Button__c" : false,
        "VIPForm__Show_Rich_Text_Area_and_Long_Text__c" : false,
        "VIPForm__Show_Submit_Button__c" : false,
        "VIPForm__Text_Box__c" : "<p>List only property that is owned.</p>",
        "VIPForm__Title_Displayed__c" : "Land Property Description & Usage",
        "RecordType" : {
          "attributes" : {
            "type" : "RecordType",
            "url" : "/services/data/v49.0/sobjects/RecordType/01235000000HKGcAAO"
          },
          "Id" : "01235000000HKGcAAO",
          "DeveloperName" : "Column_LT_4"
        },
        "VIPForm__Category__r" : {
          "attributes" : {
            "type" : "VIPForm__VIP_Category__c",
            "url" : "/services/data/v49.0/sobjects/VIPForm__VIP_Category__c/a0835000008OiFFAA0"
          },
          "Id" : "a0835000008OiFFAA0",
          "Uuid__c" : "5c0ef009-be86-4beb-a3e3-a0df5ef0abec"
        }
      }, {
        "attributes" : {
          "type" : "VIPForm__VIP_Component__c",
          "url" : "/services/data/v49.0/sobjects/VIPForm__VIP_Component__c/a0935000001OBVBAA4"
        },
        "VIPForm__Category__c" : "a0835000008OiFFAA0",
        "Id" : "a0935000001OBVBAA4",
        "Uuid__c" : "633ab483-f7a9-45d5-90d0-79bbe0074082",
        "Name" : "Personal Property & Usage",
        "RecordTypeId" : "01235000000HKGcAAO",
        "VIPForm__Add_to_Summary_PDF__c" : true,
        "VIPForm__Allow_Edit_after_Submit__c" : false,
        "VIPForm__Count__c" : "1",
        "VIPForm__Display_Help_Text__c" : false,
        "VIPForm__Do_Not_Allow_Delete_after_Submit__c" : false,
        "VIPForm__Fields_per_Row__c" : "1",
        "VIPForm__Field_Set_Overrides__c" : "[{\"isReadOnly\":false,\"isRequired\":false,\"inlineHelpText\":\"\",\"fieldLabel\":\"Personal Property: Describe - include cost and acquisition dates if applicable (Upload a separate sheet below if necessary)\",\"fieldAPI\":\"PersonalPropertyDescription__c\",\"sortOrder\":1},{\"isReadOnly\":false,\"isRequired\":false,\"inlineHelpText\":\"\",\"fieldLabel\":\"Primary Use\",\"fieldAPI\":\"PersPropPrimaryUse__c\",\"sortOrder\":2},{\"isReadOnly\":false,\"isRequired\":false,\"inlineHelpText\":\"\",\"fieldLabel\":\"Incidental Use\",\"fieldAPI\":\"PersPropIncidentalUse__c\",\"sortOrder\":3}]",
        "VIPForm__Object_API_Name__c" : "Statement__c",
        "VIPForm__Order__c" : 30,
        "VIPForm__Read_Only__c" : false,
        "VIPForm__Record_Type_Name__c" : "Column LT 4",
        "VIPForm__Related_List_Limit__c" : 50,
        "VIPForm__Related_List_Record_Title_Field__c" : "Name",
        "VIPForm__Required__c" : false,
        "VIPForm__Require_Attachment_on_related_list__c" : false,
        "VIPForm__Show_Print_Form_Button__c" : false,
        "VIPForm__Show_Rich_Text_Area_and_Long_Text__c" : false,
        "VIPForm__Show_Submit_Button__c" : false,
        "VIPForm__Text_Box__c" : "<p>List only property that is owned.</p>",
        "VIPForm__Title_Displayed__c" : "Personal Property & Usage",
        "RecordType" : {
          "attributes" : {
            "type" : "RecordType",
            "url" : "/services/data/v49.0/sobjects/RecordType/01235000000HKGcAAO"
          },
          "Id" : "01235000000HKGcAAO",
          "DeveloperName" : "Column_LT_4"
        },
        "VIPForm__Category__r" : {
          "attributes" : {
            "type" : "VIPForm__VIP_Category__c",
            "url" : "/services/data/v49.0/sobjects/VIPForm__VIP_Category__c/a0835000008OiFFAA0"
          },
          "Id" : "a0835000008OiFFAA0",
          "Uuid__c" : "5c0ef009-be86-4beb-a3e3-a0df5ef0abec"
        }
      }, {
        "attributes" : {
          "type" : "VIPForm__VIP_Component__c",
          "url" : "/services/data/v49.0/sobjects/VIPForm__VIP_Component__c/a0935000001OBVCAA4"
        },
        "VIPForm__Category__c" : "a0835000008OiFFAA0",
        "Id" : "a0935000001OBVCAA4",
        "Uuid__c" : "6cb69684-cfa1-4717-9a9a-7504d4e0d542",
        "Name" : "Personal Property Upload",
        "RecordTypeId" : "01235000000HKGkAAO",
        "VIPForm__Add_to_Summary_PDF__c" : true,
        "VIPForm__Allow_Edit_after_Submit__c" : false,
        "VIPForm__Display_Help_Text__c" : false,
        "VIPForm__Do_Not_Allow_Delete_after_Submit__c" : false,
        "VIPForm__Object_API_Name__c" : "ContentDocumentLink",
        "VIPForm__Order__c" : 35,
        "VIPForm__Parent_Obj_API_Name__c" : "Statement__c",
        "VIPForm__Read_Only__c" : false,
        "VIPForm__Record_Type_Name__c" : "Upload",
        "VIPForm__Related_List_Limit__c" : 50,
        "VIPForm__Related_List_Record_Title_Field__c" : "Name",
        "VIPForm__Relationship_Field__c" : "LinkedEntityId",
        "VIPForm__Required__c" : false,
        "VIPForm__Require_Attachment_on_related_list__c" : false,
        "VIPForm__Show_Print_Form_Button__c" : false,
        "VIPForm__Show_Rich_Text_Area_and_Long_Text__c" : false,
        "VIPForm__Show_Submit_Button__c" : false,
        "VIPForm__Upload_Type__c" : "Files",
        "RecordType" : {
          "attributes" : {
            "type" : "RecordType",
            "url" : "/services/data/v49.0/sobjects/RecordType/01235000000HKGkAAO"
          },
          "Id" : "01235000000HKGkAAO",
          "DeveloperName" : "Upload"
        },
        "VIPForm__Category__r" : {
          "attributes" : {
            "type" : "VIPForm__VIP_Category__c",
            "url" : "/services/data/v49.0/sobjects/VIPForm__VIP_Category__c/a0835000008OiFFAA0"
          },
          "Id" : "a0835000008OiFFAA0",
          "Uuid__c" : "5c0ef009-be86-4beb-a3e3-a0df5ef0abec"
        }
      } ]
    },
    "RecordType" : {
      "attributes" : {
        "type" : "RecordType",
        "url" : "/services/data/v49.0/sobjects/RecordType/01235000000HKGaAAO"
      },
      "Id" : "01235000000HKGaAAO",
      "DeveloperName" : "VIP_Form_Section"
    },
    "VIPForm__Template__r" : {
      "attributes" : {
        "type" : "VIPForm__VIP_Template__c",
        "url" : "/services/data/v49.0/sobjects/VIPForm__VIP_Template__c/a0H35000001nGD2EAM"
      },
      "Id" : "a0H35000001nGD2EAM",
      "Uuid__c" : "bc6fedfc-e536-4eae-9252-61342d5a4482"
    }
  } ],
  "branding" : {
    "attributes" : {
      "type" : "VIPForm__VIP_Form_Branding__c",
      "url" : "/services/data/v49.0/sobjects/VIPForm__VIP_Form_Branding__c/a0B35000000nzGTEAY"
    },
    "Uuid__c" : "1e1a55d2-cf95-4d5d-bafa-26b9d4f7b89b",
    "Name" : "CCSF Form Branding",
    "VIPForm__Accent_Hex_Color__c" : "#696969",
    "VIPForm__Header_Hex_Color__c" : "#162C5B",
    "VIPForm__Primary_Hex_Color__c" : "#162C5B",
    "VIPForm__Site_Template__c" : false,
    "Id" : "a0B35000000nzGTEAY"
  }
}