{
  "activeViewId" : "0ba9051b-7d9f-4bcb-a99e-fb4425362049",
  "appPageId" : "494e0424-18a7-4767-a4eb-e336e4bb9232",
  "id" : "950d90a8-ed22-4af4-bb3b-4bd7a517475e",
  "label" : "Account Related List",
  "routeType" : "relatedlist-001",
  "type" : "route",
  "urlPrefix" : "account"
}