{
  "activeViewId" : "4dd7dde4-bbd6-442b-b84e-b27345ae93dd",
  "appPageId" : "494e0424-18a7-4767-a4eb-e336e4bb9232",
  "id" : "4c65106c-1444-4915-a723-baa89182a0cd",
  "label" : "BPP Request Hardcopy Statement",
  "pageAccess" : "UseParent",
  "routeType" : "custom-bpp-request-hardcopy-statement",
  "type" : "route",
  "urlPrefix" : "bpp-request-hardcopy-statement"
}