{
  "activeViewId" : "50c51d05-e775-4c79-8f01-b8dec645c506",
  "appPageId" : "494e0424-18a7-4767-a4eb-e336e4bb9232",
  "id" : "de3f1575-78f5-4131-80ba-ebf62052bb42",
  "label" : "BPP Statement Filing Detail",
  "pageAccess" : "UseParent",
  "routeType" : "custom-propertyfilingdetail",
  "type" : "route",
  "urlPrefix" : "propertyfilingdetail"
}