{
  "activeViewId" : "864128bf-edce-461f-a215-db9887ab501a",
  "appPageId" : "494e0424-18a7-4767-a4eb-e336e4bb9232",
  "id" : "a55fbbb3-c6e7-43f3-870b-dabdc733fe77",
  "label" : "Contact Support",
  "pageAccess" : "UseParent",
  "routeType" : "contactsupport",
  "type" : "route",
  "urlPrefix" : "contactsupport"
}