{
  "activeViewId" : "1ff3c5fb-a652-4414-9d90-0193d585aef5",
  "appPageId" : "494e0424-18a7-4767-a4eb-e336e4bb9232",
  "id" : "8d711795-e23d-4a1f-a37c-cbd49eb5fff7",
  "label" : "Create Record",
  "routeType" : "createrecord",
  "type" : "route",
  "urlPrefix" : "createrecord"
}