{
  "activeViewId" : "572e0da3-5dd2-4ed3-a46b-dee7e2dde1b2",
  "appPageId" : "494e0424-18a7-4767-a4eb-e336e4bb9232",
  "id" : "c0f0c650-5f39-48bc-b62a-b5c88581ce08",
  "label" : "File BPP Statements",
  "pageAccess" : "UseParent",
  "routeType" : "custom-file-bpp-statements",
  "type" : "route",
  "urlPrefix" : "file-bpp-statements"
}