{
  "activeViewId" : null,
  "appPageId" : "494e0424-18a7-4767-a4eb-e336e4bb9232",
  "id" : "790aa1e2-19cd-4223-bfc1-8a253526ab57",
  "label" : "Property Detail",
  "objectApiName" : "Property__c",
  "routeType" : "detail-a1G",
  "type" : "route",
  "urlPrefix" : "property"
}