{
  "activeViewId" : "4feb3377-5939-40a4-98af-668d20323195",
  "appPageId" : "494e0424-18a7-4767-a4eb-e336e4bb9232",
  "id" : "ea0eef88-5846-4d65-a4bc-2208a38ec08d",
  "label" : "sfassessor",
  "pageAccess" : "Public",
  "routeType" : "custom-sfassessor",
  "type" : "route",
  "urlPrefix" : "sfassessor"
}