{
  "appPageId" : "494e0424-18a7-4767-a4eb-e336e4bb9232",
  "componentName" : "siteforce:sldsTwoCol66Layout",
  "id" : "4dd7dde4-bbd6-442b-b84e-b27345ae93dd",
  "label" : "BPP Request Hardcopy Statement",
  "regions" : [ {
    "components" : [ {
      "componentAttributes" : {
        "bannerText" : "A place where you can easily find solutions and ask questions",
        "bannerTextWithKnowledge" : "Explore other <a href=\"javascript:void(0)\" class=\"headlineArticles\">articles</a> and <a href=\"javascript:void(0)\" class=\"headlineDiscussions\">discussions</a> on this topic.",
        "bannerTextWithoutKnowledge" : "Explore other <a href=\"javascript:void(0)\" class=\"headlineDiscussions\">discussions</a> on this topic.",
        "pageType" : "",
        "showSubTopics" : true,
        "title" : "Welcome!",
        "uniqueNameOrId" : ""
      },
      "componentName" : "forceCommunity:headline",
      "id" : "bd1b0562-29c1-477b-9456-7c0dc551f79f",
      "renderPriority" : "NEUTRAL",
      "renditionMap" : { },
      "type" : "component"
    } ],
    "id" : "4ba0e6c3-3efa-4ac4-bd0e-763df0e31ed3",
    "regionName" : "header",
    "type" : "region"
  }, {
    "components" : [ {
      "componentAttributes" : {
        "flowArguments" : "[]",
        "flowLayout" : "oneColumn",
        "flowName" : "Request_Hard_Copy"
      },
      "componentName" : "forceCommunity:flowCommunity",
      "id" : "422fb99a-4320-450d-a5ff-08e910b12ca2",
      "renderPriority" : "NEUTRAL",
      "renditionMap" : { },
      "type" : "component"
    } ],
    "id" : "45fd3a19-d0f6-4e49-af24-3ecd6f8a682b",
    "regionName" : "content",
    "type" : "region"
  }, {
    "components" : [ {
      "componentAttributes" : {
        "tileMenuEditor" : "Request_Hard_Copy_Tile_Menu"
      },
      "componentName" : "forceCommunity:tileMenu",
      "id" : "4402651a-ef3a-4d3c-8d40-5a751fd2d563",
      "renderPriority" : "NEUTRAL",
      "renditionMap" : { },
      "type" : "component"
    } ],
    "id" : "4f9d3ed6-605b-4ec6-9a5f-0abc694b5a67",
    "regionName" : "sidebar",
    "type" : "region"
  }, {
    "id" : "a5bda502-201c-42a4-988e-fd2fac422c04",
    "regionName" : "footer",
    "type" : "region"
  }, {
    "components" : [ {
      "componentAttributes" : {
        "description" : "",
        "metaTags" : "",
        "title" : "BPP Request Hardcopy Statement"
      },
      "componentName" : "forceCommunity:seoAssistant",
      "id" : "79080e43-5771-43c3-8934-5edc2943124c",
      "renditionMap" : { },
      "type" : "component"
    } ],
    "id" : "840aa0b3-dd80-4a84-aa5f-ed5fdcb674dc",
    "regionName" : "sfdcHiddenRegion",
    "type" : "region"
  } ],
  "themeLayoutType" : "Inner",
  "type" : "view",
  "viewType" : "custom-bpp-request-hardcopy-statement"
}