{
  "appPageId" : "494e0424-18a7-4767-a4eb-e336e4bb9232",
  "componentName" : "siteforce:sldsOneColLayout",
  "id" : "84194e95-d6b4-4bf3-8aac-f6976676cfae",
  "label" : "File Exemptions and Property Events",
  "regions" : [ {
    "components" : [ {
      "componentAttributes" : {
        "bannerText" : "Select the Account you'd like to file for, and then from the Account select the specific property you need to file for. On the Property record, you can access the Exemption/Property Event forms. Then on the Property, click the File Property Events/Exemptions tab.",
        "bannerTextWithKnowledge" : "Explore other <a href=\"javascript:void(0)\" class=\"headlineArticles\">articles</a> and <a href=\"javascript:void(0)\" class=\"headlineDiscussions\">discussions</a> on this topic.",
        "bannerTextWithoutKnowledge" : "Explore other <a href=\"javascript:void(0)\" class=\"headlineDiscussions\">discussions</a> on this topic.",
        "pageType" : "",
        "showSubTopics" : true,
        "title" : "Instructions to File",
        "uniqueNameOrId" : ""
      },
      "componentName" : "forceCommunity:headline",
      "id" : "ff88db44-56ab-4534-8262-85232060646f",
      "renderPriority" : "NEUTRAL",
      "renditionMap" : { },
      "type" : "component"
    } ],
    "id" : "23b39b2d-bbed-4baf-a758-eda47b261c83",
    "regionName" : "header",
    "type" : "region"
  }, {
    "components" : [ {
      "componentAttributes" : { },
      "componentName" : "c:businessAccountAccessManager",
      "id" : "0e820471-405a-4832-8ee1-d7542a685159",
      "renderPriority" : "NEUTRAL",
      "renditionMap" : { },
      "type" : "component"
    } ],
    "id" : "0d390e1f-90ba-4219-8281-d27460cd1015",
    "regionName" : "content",
    "type" : "region"
  }, {
    "id" : "34e88cdf-676e-4c70-afb6-8e965b5d3a6f",
    "regionName" : "footer",
    "type" : "region"
  }, {
    "components" : [ {
      "componentAttributes" : {
        "description" : "",
        "metaTags" : "",
        "title" : "File Exemptions and Property Events"
      },
      "componentName" : "forceCommunity:seoAssistant",
      "id" : "888571fb-29c2-48a5-8981-32fd6fb28972",
      "renditionMap" : { },
      "type" : "component"
    } ],
    "id" : "832d5075-a61a-4bb9-8ca3-4d181d53a462",
    "regionName" : "sfdcHiddenRegion",
    "type" : "region"
  } ],
  "themeLayoutType" : "Inner",
  "type" : "view",
  "viewType" : "custom-file-exemptions-and-property-events"
}