{
  "appPageId" : "3ecf8350-c782-4489-b1fb-c85cdae7211f",
  "componentName" : "siteforce:sldsOneColLayout",
  "id" : "4cbc4b8f-6b4e-4ae7-bf42-28ed96f1f3cc",
  "label" : "Forgot Password",
  "regions" : [ {
    "components" : [ {
      "componentAttributes" : {
        "richTextValue" : "<div style=\"text-align: center;\"><span style=\"font-size:22px\">PASSWORD RESET</span></div>"
      },
      "componentName" : "forceCommunity:richTextInline",
      "id" : "b8cd086e-544d-4d4c-9c66-67dd9654e609",
      "renderPriority" : "NEUTRAL",
      "renditionMap" : { },
      "type" : "component"
    }, {
      "componentAttributes" : {
        "richTextValue" : "<div style=\"text-align: center;\">To reset your password, we'll need your username.<br/> We'll send password reset instructions to the email address associated with your account.</div>"
      },
      "componentName" : "forceCommunity:richTextInline",
      "id" : "5ba540b1-96cb-460d-ac51-6dbceaf4d9c3",
      "renderPriority" : "NEUTRAL",
      "renditionMap" : { },
      "type" : "component"
    }, {
      "componentAttributes" : {
        "richTextValue" : "<div style=\"text-align: center;\"><a href=\"./\">Cancel</a></div>"
      },
      "componentName" : "forceCommunity:richTextInline",
      "id" : "d77e6fcf-75b5-4191-b3ea-0efcb490394b",
      "renderPriority" : "NEUTRAL",
      "renditionMap" : { },
      "type" : "component"
    } ],
    "id" : "69ecb5fc-5a8e-47ef-9b95-81f01e8ab8d7",
    "regionName" : "content",
    "type" : "region"
  }, {
    "components" : [ {
      "componentAttributes" : {
        "description" : "",
        "metaTags" : "",
        "title" : "Forgot Password"
      },
      "componentName" : "forceCommunity:seoAssistant",
      "id" : "645efe82-e84d-40de-a3ab-375d065a8f07",
      "renditionMap" : { },
      "type" : "component"
    } ],
    "id" : "0de41864-fcb9-4b4d-a55d-55dcafd5d858",
    "regionName" : "sfdcHiddenRegion",
    "type" : "region"
  } ],
  "themeLayoutType" : "Login",
  "type" : "view",
  "viewType" : "forgot-password"
}