{
  "appPageId" : "494e0424-18a7-4767-a4eb-e336e4bb9232",
  "componentName" : "siteforce:sldsOneColLayout",
  "id" : "dc158109-6d81-48a5-bb9c-1278a4402407",
  "label" : "Ownership Related List",
  "regions" : [ {
    "id" : "1b58503b-d61b-456d-8f7a-73be3f5a826c",
    "regionName" : "header",
    "type" : "region"
  }, {
    "components" : [ {
      "componentAttributes" : {
        "customTitle" : "",
        "parentRecordId" : "{!recordId}",
        "relatedListName" : "{!relationshipApiName}",
        "showBreadCrumbs" : true,
        "showCustomTitle" : false,
        "showManualRefreshButton" : true,
        "showRowNumbers" : true
      },
      "componentName" : "forceCommunity:relatedList",
      "id" : "40d615cb-3c6c-4383-a493-ecb2cd5ec508",
      "renderPriority" : "NEUTRAL",
      "renditionMap" : { },
      "type" : "component"
    } ],
    "id" : "962f1e27-0418-4cec-9665-ad32e16bc4e4",
    "regionName" : "content",
    "type" : "region"
  }, {
    "id" : "ea076fa9-6e86-4065-9b4a-fe995df2191e",
    "regionName" : "footer",
    "type" : "region"
  } ],
  "themeLayoutType" : "Inner",
  "type" : "view",
  "viewType" : "relatedlist-a17"
}