{
  "appPageId" : "494e0424-18a7-4767-a4eb-e336e4bb9232",
  "componentName" : "siteforce:sldsOneColLayout",
  "id" : "cdd98ac0-0f19-4892-8dc5-d552cb4f45c1",
  "label" : "Related Record List",
  "regions" : [ {
    "id" : "53c5d606-b723-4911-a52e-d933d9eb193f",
    "regionName" : "header",
    "type" : "region"
  }, {
    "components" : [ {
      "componentAttributes" : {
        "customTitle" : "",
        "parentRecordId" : "{!recordId}",
        "relatedListName" : "{!relationshipApiName}",
        "showBreadCrumbs" : true,
        "showCustomTitle" : false,
        "showManualRefreshButton" : true,
        "showRowNumbers" : true
      },
      "componentName" : "forceCommunity:relatedList",
      "id" : "fdca9057-32fa-4cba-b33e-0dada309db2b",
      "renderPriority" : "NEUTRAL",
      "renditionMap" : { },
      "type" : "component"
    } ],
    "id" : "f4332e7d-79e0-4032-b72c-8511de42679e",
    "regionName" : "content",
    "type" : "region"
  }, {
    "id" : "13de3307-0a8a-4030-9872-631d64828eac",
    "regionName" : "footer",
    "type" : "region"
  } ],
  "themeLayoutType" : "Inner",
  "type" : "view",
  "viewType" : "relatedlist"
}