{
  "appPageId" : "494e0424-18a7-4767-a4eb-e336e4bb9232",
  "componentName" : "siteforce:sldsOneColLayout",
  "id" : "d15e8847-f36e-465d-996b-35f88173e2f9",
  "label" : "RP Property Events",
  "regions" : [ {
    "components" : [ {
      "componentAttributes" : {
        "bannerText" : "A place where you can easily find solutions and ask questions",
        "bannerTextWithKnowledge" : "Explore other <a href=\"javascript:void(0)\" class=\"headlineArticles\">articles</a> and <a href=\"javascript:void(0)\" class=\"headlineDiscussions\">discussions</a> on this topic.",
        "bannerTextWithoutKnowledge" : "Explore other <a href=\"javascript:void(0)\" class=\"headlineDiscussions\">discussions</a> on this topic.",
        "pageType" : "",
        "showSubTopics" : true,
        "title" : "Welcome!",
        "uniqueNameOrId" : ""
      },
      "componentName" : "forceCommunity:headline",
      "id" : "24ab3eb9-1add-4704-8b33-98517d055ecc",
      "renderPriority" : "NEUTRAL",
      "renditionMap" : { },
      "type" : "component"
    } ],
    "id" : "35990abe-80d3-4f55-b163-a5021c9eec0e",
    "regionName" : "header",
    "type" : "region"
  }, {
    "components" : [ {
      "componentAttributes" : {
        "tileMenuEditor" : "RP_Property_Events"
      },
      "componentName" : "forceCommunity:tileMenu",
      "id" : "ba2078af-6cfc-4254-bd17-5d5350639d22",
      "renderPriority" : "NEUTRAL",
      "renditionMap" : { },
      "type" : "component"
    } ],
    "id" : "4e8555e9-c20f-4448-bf36-a3b8ecbe852c",
    "regionName" : "content",
    "type" : "region"
  }, {
    "id" : "7db0d712-0c59-4efe-beef-6a4ebc6cac37",
    "regionName" : "footer",
    "type" : "region"
  }, {
    "components" : [ {
      "componentAttributes" : {
        "description" : "",
        "metaTags" : "",
        "title" : "RP Property Events"
      },
      "componentName" : "forceCommunity:seoAssistant",
      "id" : "fab57981-2851-4440-90f9-c93752111c44",
      "renditionMap" : { },
      "type" : "component"
    } ],
    "id" : "159cd4e8-7e0e-4384-86f0-0aa06d5abfa9",
    "regionName" : "sfdcHiddenRegion",
    "type" : "region"
  } ],
  "themeLayoutType" : "Inner",
  "type" : "view",
  "viewType" : "custom-rp-property-events"
}