{
  "appPageId" : "494e0424-18a7-4767-a4eb-e336e4bb9232",
  "componentName" : "siteforce:dynamicLayout",
  "id" : "4feb3377-5939-40a4-98af-668d20323195",
  "label" : "sfassessor",
  "regions" : [ {
    "components" : [ {
      "componentAttributes" : {
        "background" : "background: rgba(0,0,0,0)",
        "backgroundOverlay" : "rgba(0,0,0,0.5)",
        "contentAreaWidth" : 100,
        "sectionConfig" : {
          "UUID" : "a61fee52-2ddc-4618-b2df-9a0e085e3f75",
          "columns" : [ {
            "UUID" : "3856bb7d-494b-4ae9-b7b9-122c275939d6",
            "columnKey" : "1",
            "columnName" : "Column 1",
            "columnWidth" : "12",
            "seedComponents" : [ ]
          } ]
        },
        "sectionHeight" : 300
      },
      "componentName" : "forceCommunity:section",
      "id" : "a61fee52-2ddc-4618-b2df-9a0e085e3f75",
      "regions" : [ {
        "components" : [ {
          "componentAttributes" : {
            "richTextValue" : "<h1>Welcome to the BPP Community!</h1>"
          },
          "componentName" : "forceCommunity:richTextInline",
          "id" : "dea3a2b3-cd55-4c82-87c1-964763a61640",
          "renderPriority" : "NEUTRAL",
          "renditionMap" : { },
          "type" : "component"
        }, {
          "componentAttributes" : {
            "richTextValue" : "<p>You will need to <a href=\"https://madhudev-sfassessor.cs32.force.com/sfassessor\">Sign up/Login</a> to access your specific properties.</p>"
          },
          "componentName" : "forceCommunity:htmlBlock",
          "id" : "8e64888f-8204-454e-921c-43df687e15df",
          "renderPriority" : "NEUTRAL",
          "renditionMap" : { },
          "type" : "component"
        } ],
        "id" : "3856bb7d-494b-4ae9-b7b9-122c275939d6",
        "regionLabel" : "Column 1",
        "regionName" : "1",
        "renditionMap" : { },
        "type" : "region"
      } ],
      "renderPriority" : "NEUTRAL",
      "renditionMap" : { },
      "type" : "component"
    } ],
    "id" : "c19ce7ef-e7fd-40d4-94b2-e9e31f8310c9",
    "regionName" : "content",
    "type" : "region"
  }, {
    "components" : [ {
      "componentAttributes" : {
        "description" : "",
        "metaTags" : "",
        "title" : "sfassessor"
      },
      "componentName" : "forceCommunity:seoAssistant",
      "id" : "e6cbd9e1-b454-4fd8-b765-53f38c2344c7",
      "renditionMap" : { },
      "type" : "component"
    } ],
    "id" : "b96ebc70-6e0c-4ba5-ae7e-d472b9d80c9f",
    "regionName" : "sfdcHiddenRegion",
    "type" : "region"
  } ],
  "themeLayoutType" : "Inner",
  "type" : "view",
  "viewType" : "custom-sfassessor"
}